Attempting to find a Myo...
Connected to a Myo armband!


[0   ][0   ][0   ][0   ][0   ][0   ][0   ][0   ]
[0   ][0   ][0   ][0   ][0   ][0   ][0   ][0   ]
[0   ][0   ][0   ][0   ][0   ][0   ][0   ][0   ]
[0   ][0   ][0   ][0   ][0   ][0   ][0   ][0   ]
[-11 ][-5  ][-8  ][-7  ][-7  ][-10 ][-12 ][-12 ]
[8   ][10  ][-3  ][0   ][-2  ][-5  ][-6  ][3   ]
[6   ][-27 ][-1  ][-6  ][-2  ][-1  ][7   ][-41 ]
[-9  ][4   ][15  ][8   ][-2  ][-4  ][23  ][3   ]
[-31 ][-9  ][2   ][-7  ][-1  ][2   ][-16 ][-16 ]
[-17 ][-31 ][10  ][51  ][-7  ][-4  ][15  ][-14 ]
[53  ][-67 ][-25 ][-114][-19 ][43  ][-30 ][21  ]
[85  ][-73 ][-53 ][-102][-3  ][4   ][-31 ][-48 ]
[-6  ][-5  ][37  ][-128][-46 ][-16 ][-13 ][-2  ]
[-62 ][-43 ][52  ][104 ][12  ][-26 ][-8  ][-41 ]
[-43 ][8   ][73  ][-34 ][-24 ][-23 ][-22 ][-65 ]
[-6  ][-9  ][-33 ][-51 ][4   ][43  ][18  ][38  ]
[13  ][8   ][-42 ][-65 ][-23 ][-4  ][2   ][26  ]
[-23 ][4   ][-40 ][9   ][-24 ][1   ][-11 ][-98 ]
[-6  ][-27 ][-14 ][-38 ][-37 ][-5  ][-5  ][110 ]
[26  ][-3  ][28  ][-9  ][15  ][28  ][87  ][88  ]
[3   ][13  ][3   ][11  ][1   ][-4  ][-111][16  ]
[3   ][-3  ][-6  ][5   ][11  ][7   ][29  ][12  ]
[3   ][1   ][1   ][-5  ][2   ][-6  ][49  ][12  ]
[0   ][-7  ][-2  ][-5  ][-5  ][-11 ][-10 ][9   ]
[0   ][-1  ][0   ][0   ][-7  ][-2  ][-34 ][-11 ]
[-3  ][-1  ][0   ][-3  ][7   ][19  ][8   ][4   ]
[0   ][0   ][-2  ][4   ][1   ][7   ][-6  ][1   ]
[-3  ][0   ][2   ][3   ][-1  ][3   ][-2  ][-4  ]
[2   ][9   ][-1  ][-2  ][-5  ][1   ][-16 ][-2  ]
[-9  ][-14 ][-6  ][-3  ][-6  ][-19 ][-2  ][4   ]
[-3  ][67  ][12  ][38  ][12  ][5   ][1   ][-5  ]
[-9  ][21  ][-54 ][-57 ][-12 ][-4  ][5   ][-7  ]
[-80 ][95  ][-31 ][27  ][-17 ][-1  ][-6  ][-44 ]
[-89 ][-119][-47 ][111 ][47  ][41  ][64  ][75  ]
[127 ][92  ][73  ][-96 ][-11 ][30  ][40  ][-99 ]
[80  ][37  ][80  ][94  ][32  ][23  ][13  ][22  ]
[60  ][37  ][19  ][0   ][-3  ][41  ][72  ][101 ]
[-61 ][-52 ][78  ][19  ][14  ][-23 ][-33 ][-92 ]
[69  ][32  ][-8  ][-18 ][-21 ][-71 ][-91 ][10  ]
[-6  ][-27 ][69  ][39  ][3   ][6   ][0   ][5   ]
[-20 ][-22 ][-11 ][31  ][5   ][3   ][10  ][11  ]
[11  ][-21 ][-73 ][-17 ][-30 ][-4  ][-7  ][39  ]
[-33 ][20  ][-36 ][-34 ][6   ][6   ][-70 ][24  ]
[-17 ][-27 ][-21 ][-1  ][10  ][-21 ][-4  ][-8  ]
[9   ][7   ][7   ][-2  ][10  ][15  ][-103][-16 ]
[-11 ][-11 ][-8  ][-9  ][-11 ][-10 ][-27 ][-37 ]
[-1  ][-2  ][-4  ][-6  ][1   ][0   ][27  ][-4  ]
[-8  ][-3  ][-3  ][-2  ][4   ][12  ][8   ][-1  ]
[3   ][0   ][0   ][-9  ][-7  ][-2  ][8   ][-1  ]
[1   ][-1  ][-6  ][-1  ][-2  ][-1  ][8   ][-6  ]
[-5  ][2   ][-1  ][-5  ][-2  ][-4  ][4   ][-5  ]
[1   ][-41 ][-6  ][-6  ][-7  ][-9  ][-21 ][4   ]
[-4  ][-3  ][-8  ][-4  ][-7  ][-8  ][-16 ][-10 ]
[-9  ][-19 ][-5  ][-4  ][4   ][14  ][-6  ][-16 ]
[11  ][-8  ][10  ][9   ][-3  ][1   ][10  ][29  ]
[9   ][63  ][41  ][91  ][9   ][-34 ][-11 ][28  ]
[44  ][-12 ][-29 ][43  ][23  ][10  ][-8  ][-34 ]
[3   ][-67 ][-19 ][60  ][29  ][83  ][40  ][0   ]
[-16 ][-60 ][-128][-99 ][-30 ][-35 ][-15 ][33  ]
[-1  ][90  ][127 ][52  ][28  ][15  ][13  ][21  ]
[3   ][-20 ][-128][-52 ][-1  ][18  ][35  ][-46 ]
[28  ][10  ][-8  ][71  ][50  ][31  ][5   ][-5  ]
[35  ][-21 ][-86 ][-20 ][6   ][-37 ][-4  ][-57 ]
[-20 ][-21 ][32  ][12  ][-11 ][-29 ][-21 ][0   ]
[15  ][35  ][13  ][-122][-91 ][3   ][7   ][37  ]
[-16 ][-18 ][-34 ][78  ][-2  ][-10 ][20  ][-6  ]
[-15 ][2   ][-1  ][14  ][-7  ][-3  ][72  ][-70 ]
[9   ][18  ][8   ][-15 ][-12 ][-12 ][32  ][-12 ]
[0   ][-5  ][2   ][-11 ][-9  ][-2  ][17  ][12  ]
[-2  ][-3  ][1   ][-7  ][-4  ][0   ][-15 ][-6  ]
[7   ][1   ][3   ][8   ][7   ][0   ][-21 ][12  ]
[-1  ][-1  ][-3  ][-4  ][-1  ][-10 ][1   ][-10 ]
[2   ][0   ][-2  ][-2  ][0   ][0   ][-13 ][2   ]
[-8  ][-10 ][-2  ][-3  ][1   ][7   ][3   ][-6  ]
[-2  ][1   ][0   ][1   ][1   ][1   ][-13 ][0   ]
[9   ][1   ][-2  ][3   ][1   ][-6  ][-2  ][18  ]
[5   ][21  ][1   ][2   ][7   ][10  ][34  ][15  ]
[25  ][31  ][25  ][25  ][1   ][-9  ][-3  ][8   ]
[79  ][40  ][28  ][30  ][-1  ][-9  ][-53 ][8   ]
[-49 ][-29 ][11  ][29  ][10  ][18  ][53  ][-17 ]
[28  ][10  ][-6  ][-28 ][9   ][5   ][8   ][44  ]
[84  ][-13 ][-43 ][-27 ][-41 ][9   ][7   ][-65 ]
[-17 ][87  ][-37 ][-64 ][-11 ][11  ][18  ][4   ]
[-80 ][-91 ][-76 ][-13 ][-36 ][-29 ][-46 ][-123]
[34  ][-23 ][-25 ][41  ][26  ][-2  ][45  ][51  ]
[-19 ][5   ][-9  ][-20 ][-6  ][-2  ][10  ][25  ]
[13  ][27  ][-11 ][-39 ][-35 ][1   ][-20 ][-7  ]
[0   ][17  ][-41 ][-1  ][-33 ][-30 ][5   ][14  ]
[-10 ][-58 ][66  ][20  ][7   ][13  ][4   ][-51 ]
[-11 ][-5  ][-6  ][3   ][11  ][-9  ][-29 ][-70 ]
[7   ][10  ][-4  ][13  ][21  ][-6  ][7   ][11  ]
[8   ][9   ][14  ][5   ][1   ][15  ][36  ][26  ]
[1   ][5   ][-2  ][3   ][12  ][3   ][-3  ][1   ]
[-1  ][-5  ][-2  ][2   ][-3  ][-5  ][-7  ][4   ]
[0   ][-7  ][-3  ][-2  ][3   ][6   ][7   ][3   ]
[-3  ][2   ][-3  ][-3  ][-11 ][-12 ][-12 ][-23 ]
[0   ][4   ][4   ][16  ][14  ][2   ][3   ][2   ]
[-2  ][-2  ][-4  ][-5  ][-5  ][-10 ][-4  ][3   ]
[-1  ][0   ][-2  ][0   ][-5  ][-5  ][-7  ][0   ]
[-1  ][0   ][-2  ][-3  ][-2  ][2   ][-15 ][-8  ]
[1   ][0   ][-2  ][0   ][1   ][-7  ][5   ][8   ]
[-1  ][-2  ][-3  ][-5  ][-5  ][-1  ][-4  ][-15 ]
[-2  ][-2  ][-1  ][-10 ][-6  ][-3  ][2   ][2   ]
[0   ][-2  ][-1  ][-5  ][-2  ][-3  ][5   ][-1  ]
[-3  ][-2  ][-2  ][-8  ][-10 ][-9  ][1   ][-5  ]
[0   ][-3  ][0   ][-6  ][-4  ][-6  ][-6  ][-9  ]
[-1  ][1   ][-2  ][-2  ][-1  ][4   ][2   ][-1  ]
[-2  ][0   ][0   ][10  ][-1  ][-2  ][3   ][-3  ]
[-1  ][-1  ][-3  ][-3  ][3   ][-5  ][-7  ][3   ]
[-2  ][-1  ][-1  ][4   ][5   ][-4  ][-1  ][-1  ]
[-1  ][-1  ][-1  ][-2  ][0   ][-3  ][-1  ][-6  ]
[-1  ][-1  ][0   ][-7  ][4   ][0   ][0   ][-1  ]
[-1  ][0   ][-2  ][-6  ][-6  ][-2  ][0   ][1   ]
[-1  ][-2  ][0   ][-4  ][-5  ][-2  ][-1  ][0   ]
[-5  ][-4  ][-4  ][-3  ][-5  ][-11 ][-31 ][-2  ]
[0   ][0   ][-2  ][-8  ][-4  ][6   ][1   ][1   ]
[-1  ][-3  ][-17 ][-5  ][0   ][0   ][3   ][-3  ]
[1   ][1   ][2   ][1   ][12  ][2   ][1   ][1   ]
[1   ][-1  ][2   ][4   ][3   ][4   ][-1  ][-5  ]
[-1  ][0   ][0   ][2   ][8   ][1   ][1   ][0   ]
[-3  ][0   ][-2  ][-3  ][-2  ][-6  ][-14 ][-9  ]
[-1  ][1   ][1   ][2   ][-5  ][0   ][4   ][1   ]
[0   ][-3  ][0   ][2   ][1   ][-9  ][6   ][0   ]
[-1  ][-1  ][-1  ][-3  ][-6  ][-3  ][-4  ][0   ]
[-3  ][-2  ][-1  ][-5  ][-8  ][-6  ][-14 ][-4  ]
[1   ][0   ][0   ][-5  ][7   ][1   ][4   ][1   ]
[1   ][-2  ][-2  ][-11 ][-16 ][-13 ][6   ][0   ]
[1   ][0   ][-1  ][0   ][4   ][-1  ][0   ][-1  ]
[-2  ][-1  ][-2  ][0   ][-6  ][-7  ][4   ][1   ]
[-1  ][-1  ][1   ][1   ][2   ][14  ][-2  ][7   ]
[-1  ][0   ][-1  ][7   ][12  ][9   ][5   ][2   ]
[-1  ][0   ][-5  ][-3  ][-4  ][-9  ][0   ][-6  ]
[0   ][-3  ][-1  ][-7  ][-11 ][-6  ][6   ][1   ]
[-2  ][0   ][2   ][-2  ][-2  ][1   ][-2  ][-4  ]
[0   ][3   ][-2  ][-17 ][-13 ][-4  ][-7  ][5   ]
[-1  ][-3  ][1   ][4   ][2   ][2   ][5   ][1   ]
[-1  ][-18 ][-1  ][6   ][8   ][-1  ][-20 ][-5  ]
[10  ][-45 ][5   ][6   ][4   ][6   ][16  ][1   ]
[-7  ][-29 ][-52 ][35  ][14  ][12  ][-12 ][5   ]
[42  ][-29 ][11  ][-74 ][-15 ][22  ][14  ][27  ]
[41  ][-61 ][-15 ][31  ][-1  ][-6  ][9   ][29  ]
[97  ][-97 ][-65 ][49  ][9   ][8   ][-9  ][0   ]
[-20 ][55  ][127 ][28  ][7   ][37  ][48  ][-17 ]
[-48 ][-104][78  ][10  ][-16 ][-33 ][13  ][37  ]
[-12 ][30  ][-41 ][-128][-11 ][-5  ][-12 ][-1  ]
[56  ][-73 ][-2  ][-76 ][-13 ][72  ][59  ][49  ]
[-15 ][-12 ][-57 ][-20 ][-6  ][-4  ][1   ][13  ]
[-26 ][2   ][3   ][102 ][104 ][20  ][-3  ][-24 ]
[-17 ][-104][-84 ][-20 ][-59 ][-18 ][11  ][99  ]
[-8  ][11  ][45  ][98  ][28  ][14  ][-22 ][-8  ]
[1   ][18  ][-10 ][-2  ][-3  ][8   ][50  ][-44 ]
[2   ][1   ][-1  ][-18 ][-14 ][-7  ][-38 ][-21 ]
[-4  ][4   ][1   ][-11 ][-12 ][5   ][-18 ][-8  ]
[0   ][-4  ][3   ][-3  ][-2  ][-1  ][4   ][17  ]
[-2  ][-4  ][5   ][-7  ][-4  ][-4  ][-17 ][15  ]
[0   ][-1  ][-5  ][-2  ][7   ][11  ][-4  ][-2  ]
[-4  ][-4  ][-3  ][-2  ][5   ][12  ][-22 ][-11 ]
[0   ][2   ][-1  ][2   ][2   ][4   ][3   ][-2  ]
[-2  ][-13 ][-1  ][-2  ][-4  ][-4  ][-7  ][0   ]
[2   ][-10 ][2   ][-4  ][1   ][-5  ][0   ][-9  ]
[8   ][-1  ][0   ][-13 ][-1  ][2   ][3   ][0   ]
[2   ][57  ][8   ][12  ][4   ][-1  ][49  ][-2  ]
[-24 ][0   ][-19 ][-31 ][-9  ][-8  ][20  ][10  ]
[-22 ][-101][-9  ][62  ][12  ][-12 ][7   ][31  ]
[-1  ][88  ][55  ][10  ][-9  ][-25 ][-31 ][47  ]
[1   ][-106][2   ][126 ][28  ][9   ][-46 ][47  ]
[20  ][-23 ][127 ][-37 ][3   ][40  ][27  ][-11 ]
[56  ][92  ][52  ][73  ][14  ][-4  ][40  ][43  ]
[17  ][81  ][64  ][4   ][2   ][-6  ][-46 ][-128]
[-47 ][-111][-111][91  ][38  ][-22 ][17  ][-28 ]
[-47 ][26  ][-10 ][-43 ][-15 ][13  ][-19 ][-33 ]
[57  ][22  ][-4  ][-42 ][4   ][1   ][9   ][72  ]
[-28 ][-37 ][-10 ][112 ][96  ][-16 ][-62 ][-46 ]
[47  ][16  ][-3  ][-40 ][9   ][34  ][39  ][51  ]
[-24 ][-38 ][-51 ][-111][-23 ][-16 ][-22 ][-113]
[14  ][20  ][1   ][16  ][-1  ][-12 ][-24 ][12  ]
[9   ][6   ][2   ][-14 ][-11 ][7   ][-2  ][49  ]
[8   ][-3  ][2   ][17  ][-6  ][-16 ][-17 ][-2  ]
[-1  ][4   ][-9  ][-8  ][-8  ][-6  ][17  ][4   ]
[1   ][-3  ][-2  ][14  ][2   ][0   ][11  ][-12 ]
[-5  ][-36 ][-10 ][-19 ][-10 ][-9  ][7   ][-3  ]
[-6  ][-22 ][-6  ][5   ][-9  ][-12 ][1   ][3   ]
[-7  ][1   ][-6  ][-9  ][-17 ][0   ][-8  ][-14 ]
[23  ][-14 ][18  ][0   ][-1  ][5   ][-7  ][-5  ]
[-16 ][86  ][20  ][35  ][3   ][-5  ][-14 ][-45 ]
[41  ][-9  ][-38 ][-4  ][-3  ][-1  ][15  ][14  ]
[-55 ][-27 ][-7  ][18  ][7   ][6   ][-25 ][3   ]
[41  ][1   ][8   ][48  ][-4  ][-4  ][5   ][-28 ]
[73  ][15  ][-51 ][-11 ][-31 ][-19 ][7   ][77  ]
[-83 ][-128][31  ][-6  ][9   ][4   ][-4  ][20  ]
[-4  ][127 ][78  ][-57 ][34  ][67  ][30  ][-2  ]
[-10 ][11  ][-13 ][-7  ][-18 ][-5  ][32  ][6   ]
[-23 ][2   ][-24 ][-53 ][-35 ][4   ][12  ][-47 ]
[-27 ][-89 ][-56 ][-47 ][6   ][25  ][21  ][7   ]
[14  ][38  ][23  ][3   ][54  ][17  ][40  ][73  ]
[1   ][4   ][-10 ][23  ][20  ][-8  ][5   ][-82 ]
[-3  ][-13 ][-12 ][-8  ][7   ][5   ][6   ][-63 ]
[-6  ][0   ][-9  ][-15 ][-14 ][4   ][-7  ][-27 ]
[11  ][8   ][4   ][-5  ][9   ][7   ][2   ][9   ]
[-3  ][5   ][1   ][-5  ][5   ][-1  ][9   ][-20 ]
[3   ][1   ][3   ][0   ][-3  ][-3  ][3   ][11  ]
[2   ][-6  ][0   ][-5  ][-4  ][-1  ][0   ][4   ]
[-13 ][-54 ][-6  ][-6  ][-4  ][-4  ][-5  ][-4  ]
[3   ][-2  ][0   ][-9  ][-5  ][-4  ][-1  ][-2  ]
[0   ][5   ][0   ][-5  ][-5  ][-7  ][18  ][4   ]
[16  ][-87 ][1   ][-2  ][-5  ][-9  ][-11 ][0   ]
[-12 ][95  ][2   ][-1  ][-2  ][-16 ][-29 ][1   ]
[104 ][76  ][5   ][42  ][14  ][-43 ][-9  ][40  ]
[60  ][-20 ][67  ][-84 ][-4  ][0   ][-10 ][33  ]
[-128][-128][-44 ][44  ][-6  ][0   ][4   ][-9  ]
[113 ][106 ][0   ][-44 ][-16 ][-5  ][-6  ][84  ]
[51  ][31  ][36  ][-54 ][-31 ][-9  ][-45 ][-27 ]
[-47 ][-80 ][-2  ][7   ][-11 ][-17 ][-34 ][-95 ]
[9   ][-15 ][69  ][88  ][4   ][-17 ][16  ][27  ]
[-38 ][-30 ][4   ][4   ][-19 ][-3  ][0   ][-29 ]
[-11 ][9   ][15  ][-50 ][14  ][0   ][5   ][-7  ]
[-4  ][18  ][-10 ][11  ][20  ][5   ][16  ][19  ]
[-2  ][3   ][-35 ][-32 ][-34 ][-22 ][112 ][59  ]
[5   ][3   ][-4  ][-10 ][-3  ][-1  ][-38 ][-8  ]
[3   ][2   ][9   ][14  ][16  ][6   ][15  ][11  ]
[-2  ][2   ][0   ][-1  ][1   ][8   ][-6  ][-12 ]
[0   ][3   ][1   ][-5  ][17  ][11  ][8   ][-4  ]
[-2  ][-1  ][1   ][4   ][2   ][0   ][14  ][0   ]
[-1  ][3   ][1   ][4   ][0   ][4   ][2   ][-5  ]
[0   ][-2  ][-1  ][-5  ][-2  ][2   ][-10 ][4   ]
[-1  ][-4  ][-2  ][-1  ][18  ][27  ][1   ][-2  ]
[-1  ][0   ][-1  ][-1  ][3   ][2   ][0   ][-1  ]
[-1  ][-3  ][-1  ][2   ][0   ][6   ][-3  ][2   ]
[1   ][0   ][0   ][-1  ][2   ][-5  ][-5  ][-2  ]
[0   ][0   ][-1  ][-10 ][-8  ][-1  ][-11 ][-1  ]
[0   ][-1  ][-1  ][-4  ][-5  ][-4  ][-9  ][-4  ]
[-2  ][-1  ][-2  ][-1  ][-3  ][-5  ][-6  ][-3  ]
[-2  ][-1  ][0   ][-3  ][-2  ][-2  ][-16 ][-1  ]
[-2  ][-1  ][3   ][-2  ][-5  ][0   ][3   ][0   ]
[1   ][0   ][0   ][1   ][2   ][-3  ][6   ][3   ]
[0   ][-2  ][-3  ][4   ][-5  ][-3  ][1   ][-3  ]
[-2  ][-1  ][0   ][1   ][4   ][6   ][2   ][1   ]
[0   ][-1  ][1   ][3   ][-1  ][1   ][3   ][2   ]
[-1  ][-2  ][0   ][-1  ][1   ][-6  ][-14 ][2   ]
[0   ][-1  ][1   ][-1  ][2   ][3   ][0   ][3   ]
[0   ][1   ][0   ][1   ][5   ][8   ][3   ][4   ]
[0   ][0   ][1   ][1   ][12  ][14  ][2   ][5   ]
[-1  ][-5  ][-38 ][-10 ][-5  ][1   ][-3  ][1   ]
[0   ][2   ][7   ][9   ][22  ][26  ][-1  ][-1  ]
[1   ][0   ][4   ][-1  ][-2  ][-2  ][13  ][10  ]
[-2  ][-2  ][1   ][9   ][-3  ][1   ][-3  ][-1  ]
[0   ][-2  ][4   ][-4  ][-7  ][0   ][-3  ][-7  ]
[-1  ][-2  ][-2  ][-6  ][-7  ][-29 ][-1  ][-2  ]
[-1  ][1   ][0   ][-5  ][0   ][7   ][4   ][1   ]
[-3  ][0   ][-2  ][-3  ][-3  ][-7  ][2   ][-2  ]
[-2  ][2   ][-2  ][-4  ][-3  ][14  ][-5  ][-2  ]
[-1  ][-1  ][-2  ][-2  ][-2  ][0   ][1   ][-2  ]
[-1  ][-2  ][0   ][6   ][16  ][21  ][5   ][-1  ]
[1   ][1   ][2   ][11  ][12  ][8   ][1   ][0   ]
[0   ][0   ][-3  ][-4  ][4   ][4   ][5   ][1   ]
[-1  ][0   ][-1  ][-1  ][-3  ][-9  ][-6  ][-3  ]
[0   ][0   ][-3  ][0   ][-2  ][-1  ][0   ][-1  ]
[-2  ][-1  ][6   ][0   ][0   ][4   ][3   ][4   ]
[-1  ][-1  ][-2  ][5   ][-5  ][-6  ][13  ][5   ]
[-1  ][0   ][0   ][5   ][-2  ][-15 ][2   ][-1  ]
[-1  ][-3  ][1   ][5   ][0   ][-6  ][13  ][-1  ]
[0   ][1   ][-1  ][-2  ][-6  ][-7  ][-4  ][0   ]
[0   ][0   ][-1  ][1   ][-3  ][-7  ][-6  ][2   ]
[-2  ][-1  ][-1  ][-1  ][1   ][8   ][2   ][-4  ]
[-4  ][-2  ][0   ][5   ][5   ][13  ][-2  ][-5  ]
[0   ][0   ][4   ][-2  ][1   ][-1  ][-4  ][0   ]
[-1  ][-1  ][2   ][3   ][-1  ][-1  ][8   ][3   ]
[-2  ][-1  ][0   ][-4  ][-3  ][-10 ][-3  ][-1  ]
[0   ][-1  ][-2  ][-2  ][0   ][-1  ][3   ][1   ]
[-1  ][0   ][1   ][-2  ][-4  ][-21 ][-2  ][0   ]
[0   ][-1  ][-1  ][-1  ][2   ][5   ][-3  ][-4  ]
[-1  ][-1  ][-1  ][-4  ][-2  ][0   ][0   ][0   ]
[-1  ][-1  ][0   ][4   ][-4  ][-4  ][-2  ][-4  ]
[-2  ][1   ][0   ][-1  ][0   ][-5  ][5   ][-4  ]
[-1  ][2   ][2   ][1   ][1   ][3   ][1   ][1   ]
[-5  ][7   ][-1  ][-1  ][-3  ][-5  ][-9  ][-5  ]
[-1  ][-3  ][-4  ][-4  ][-6  ][-7  ][-18 ][-6  ]
[2   ][-1  ][-1  ][5   ][2   ][2   ][13  ][-2  ]
[-14 ][1   ][-9  ][4   ][0   ][-3  ][17  ][-8  ]
[8   ][69  ][11  ][-7  ][-5  ][-6  ][1   ][20  ]
[54  ][36  ][6   ][-17 ][2   ][-2  ][1   ][18  ]
[24  ][-29 ][24  ][-4  ][-4  ][4   ][10  ][5   ]
[-128][-115][-74 ][-6  ][-14 ][-17 ][-19 ][10  ]
[-123][79  ][127 ][35  ][1   ][-5  ][-5  ][-85 ]
[-58 ][-16 ][2   ][-4  ][2   ][-6  ][10  ][-46 ]
[127 ][18  ][-16 ][-25 ][-10 ][-19 ][-19 ][14  ]
[-63 ][-59 ][-121][-65 ][-12 ][-14 ][-5  ][23  ]
[55  ][101 ][127 ][42  ][9   ][-13 ][-37 ][-24 ]
[18  ][3   ][-49 ][-38 ][12  ][11  ][8   ][-19 ]
[-3  ][47  ][14  ][39  ][64  ][13  ][7   ][20  ]
[-19 ][7   ][44  ][-1  ][-17 ][-2  ][-14 ][-47 ]
[-5  ][14  ][-14 ][7   ][-2  ][-8  ][-7  ][8   ]
[-2  ][-1  ][-12 ][3   ][-11 ][5   ][-5  ][2   ]
[4   ][6   ][-2  ][5   ][5   ][11  ][-11 ][2   ]
[-3  ][-1  ][-2  ][-3  ][-3  ][-1  ][-60 ][-7  ]
[-3  ][3   ][-3  ][-1  ][4   ][0   ][10  ][-6  ]
[-4  ][-3  ][-9  ][3   ][-4  ][-3  ][-5  ][3   ]
[-1  ][0   ][-1  ][-2  ][-5  ][-19 ][6   ][3   ]
[1   ][-5  ][-4  ][-3  ][-4  ][2   ][-4  ][3   ]
[-8  ][-9  ][1   ][1   ][-4  ][-5  ][2   ][5   ]
[1   ][3   ][-2  ][1   ][-4  ][-9  ][16  ][10  ]
[4   ][-6  ][3   ][8   ][8   ][9   ][31  ][-8  ]
[-14 ][13  ][0   ][-2  ][-2  ][-3  ][2   ][8   ]
[-14 ][-80 ][10  ][1   ][-2  ][-7  ][-40 ][-24 ]
[17  ][-15 ][36  ][15  ][-6  ][-9  ][-19 ][-11 ]
[-35 ][-4  ][13  ][31  ][5   ][-8  ][8   ][4   ]
[-58 ][-60 ][8   ][-25 ][4   ][10  ][12  ][-35 ]
[30  ][-13 ][-70 ][-77 ][-9  ][11  ][-4  ][-16 ]
[11  ][-18 ][114 ][118 ][35  ][-10 ][-2  ][-20 ]
[65  ][47  ][71  ][-31 ][-21 ][-14 ][32  ][-8  ]
[13  ][28  ][-128][-29 ][1   ][-10 ][-30 ][34  ]
[-36 ][-42 ][-4  ][20  ][-3  ][-1  ][1   ][1   ]
[15  ][-19 ][47  ][-18 ][-56 ][-14 ][-12 ][-17 ]
[19  ][9   ][1   ][36  ][23  ][6   ][-11 ][-15 ]
[1   ][-3  ][-31 ][-6  ][2   ][-11 ][1   ][13  ]
[3   ][4   ][-10 ][8   ][22  ][-10 ][-16 ][42  ]
[-4  ][-10 ][-13 ][-4  ][7   ][-3  ][44  ][22  ]
[1   ][0   ][1   ][-4  ][1   ][9   ][15  ][21  ]
[1   ][-3  ][-1  ][2   ][2   ][7   ][14  ][-15 ]
[-2  ][-2  ][-2  ][-6  ][1   ][22  ][-12 ][-11 ]
[-3  ][-1  ][-1  ][-5  ][-7  ][-9  ][-18 ][-15 ]
[-3  ][4   ][0   ][-1  ][-3  ][0   ][-5  ][-3  ]
[-2  ][9   ][-2  ][0   ][0   ][8   ][9   ][0   ]
[3   ][-6  ][-2  ][-8  ][-18 ][-14 ][-2  ][-4  ]
[-2  ][-9  ][1   ][-1  ][4   ][16  ][5   ][0   ]
[-7  ][-5  ][2   ][14  ][9   ][6   ][5   ][5   ]
[-1  ][23  ][2   ][-21 ][-5  ][-5  ][-35 ][0   ]
[-12 ][-29 ][3   ][5   ][-2  ][3   ][32  ][40  ]
[-45 ][26  ][-3  ][-10 ][7   ][14  ][-5  ][3   ]
[10  ][33  ][-23 ][23  ][1   ][-13 ][18  ][1   ]
[-19 ][-46 ][7   ][-26 ][-3  ][7   ][-19 ][7   ]
[44  ][53  ][-14 ][-22 ][6   ][8   ][-14 ][-3  ]
[-87 ][81  ][80  ][88  ][7   ][-23 ][0   ][-44 ]
[0   ][4   ][-27 ][-83 ][-28 ][-15 ][-18 ][-11 ]
[50  ][50  ][70  ][-44 ][-26 ][-18 ][12  ][29  ]
[-9  ][25  ][26  ][40  ][4   ][-4  ][-21 ][2   ]
[-31 ][-14 ][-5  ][9   ][10  ][32  ][2   ][-7  ]
[2   ][-19 ][20  ][52  ][15  ][9   ][3   ][5   ]
[-2  ][5   ][-7  ][-21 ][-12 ][20  ][-4  ][-8  ]
[0   ][-21 ][-71 ][-16 ][-26 ][2   ][-9  ][-13 ]
[-8  ][6   ][7   ][7   ][4   ][12  ][-57 ][-78 ]
[1   ][-6  ][-22 ][-3  ][-18 ][-6  ][0   ][-27 ]
[1   ][0   ][0   ][4   ][3   ][-6  ][-13 ][-1  ]
[-2  ][-6  ][-12 ][-6  ][0   ][-1  ][-6  ][-11 ]
[-1  ][-1  ][0   ][3   ][7   ][-3  ][-2  ][-11 ]
[-1  ][1   ][0   ][-15 ][-8  ][-4  ][1   ][4   ]
[-1  ][-1  ][2   ][-2  ][-5  ][2   ][-8  ][11  ]
[-2  ][-2  ][1   ][8   ][-3  ][-15 ][0   ][-8  ]
[-2  ][-4  ][0   ][1   ][-1  ][-8  ][1   ][-6  ]
[0   ][9   ][-2  ][-4  ][0   ][0   ][2   ][-1  ]
[11  ][19  ][0   ][-2  ][-2  ][7   ][-6  ][19  ]
[-5  ][-30 ][0   ][-1  ][-4  ][-15 ][6   ][-2  ]
[3   ][1   ][-4  ][-5  ][-4  ][0   ][-14 ][-8  ]
[4   ][-34 ][4   ][-1  ][4   ][4   ][-3  ][-1  ]
[-5  ][-1  ][0   ][2   ][9   ][6   ][-11 ][0   ]
[-22 ][-24 ][4   ][7   ][-2  ][-31 ][-1  ][12  ]
[-56 ][-28 ][-5  ][-6  ][-6  ][3   ][3   ][-25 ]
[76  ][-19 ][6   ][23  ][13  ][10  ][-25 ][-12 ]
[9   ][-28 ][-24 ][-45 ][-8  ][-8  ][0   ][15  ]
[36  ][56  ][-67 ][-31 ][10  ][5   ][-9  ][30  ]
[53  ][102 ][119 ][62  ][15  ][9   ][15  ][23  ]
[-128][47  ][26  ][-12 ][-8  ][-8  ][9   ][-7  ]
[17  ][-59 ][81  ][68  ][-1  ][-25 ][-20 ][-3  ]
[-2  ][97  ][59  ][29  ][21  ][22  ][-29 ][-42 ]
[-26 ][-45 ][-67 ][-36 ][-3  ][-1  ][12  ][-4  ]
[-6  ][-45 ][-31 ][53  ][58  ][-3  ][17  ][74  ]
[-8  ][-2  ][10  ][2   ][-7  ][0   ][-3  ][-18 ]
[-6  ][-7  ][0   ][-12 ][-8  ][-13 ][-43 ][-5  ]
[3   ][-2  ][3   ][-1  ][-2  ][0   ][62  ][8   ]
[0   ][-5  ][-6  ][-8  ][-2  ][-4  ][21  ][-14 ]
[-2  ][-5  ][0   ][4   ][5   ][-4  ][-18 ][-17 ]
[-1  ][-1  ][1   ][-3  ][-6  ][-6  ][-5  ][2   ]
[0   ][-2  ][1   ][2   ][-4  ][-5  ][7   ][-1  ]
[-1  ][-1  ][0   ][-5  ][-5  ][-1  ][1   ][-8  ]
[-1  ][-2  ][0   ][-1  ][-2  ][-4  ][-2  ][16  ]
[-3  ][2   ][-1  ][-1  ][-8  ][-4  ][-1  ][-6  ]
[1   ][-2  ][-3  ][3   ][3   ][5   ][34  ][14  ]
[0   ][4   ][0   ][3   ][5   ][-3  ][-4  ][0   ]
[-1  ][-3  ][-1  ][1   ][-1  ][-6  ][-2  ][-9  ]
[1   ][0   ][0   ][-1  ][0   ][8   ][-10 ][3   ]
[-1  ][-1  ][-1  ][2   ][-2  ][3   ][-1  ][0   ]
[1   ][1   ][-2  ][-5  ][-2  ][6   ][8   ][-3  ]
[0   ][-3  ][-5  ][-8  ][-8  ][-8  ][-4  ][-11 ]
[0   ][-2  ][1   ][0   ][5   ][0   ][-3  ][-7  ]
[0   ][-6  ][-4  ][-3  ][8   ][11  ][-3  ][11  ]
[-1  ][-1  ][3   ][5   ][4   ][13  ][-1  ][8   ]
[-2  ][4   ][1   ][6   ][10  ][-1  ][0   ][-2  ]
[0   ][0   ][-2  ][-10 ][-9  ][-4  ][-27 ][-6  ]
[0   ][-3  ][-3  ][-3  ][6   ][15  ][10  ][4   ]
[-2  ][-2  ][-2  ][-2  ][-7  ][-7  ][-10 ][-5  ]
[-1  ][1   ][-1  ][-2  ][-11 ][-22 ][0   ][1   ]
[0   ][-2  ][-2  ][-3  ][-3  ][4   ][-8  ][-1  ]
[-1  ][-1  ][0   ][4   ][1   ][6   ][-2  ][-2  ]
[-2  ][4   ][-2  ][3   ][-1  ][1   ][-4  ][-2  ]
[2   ][1   ][0   ][-5  ][-3  ][-3  ][-4  ][0   ]
[-2  ][-2  ][-2  ][4   ][-5  ][-2  ][3   ][0   ]
[-1  ][-1  ][1   ][4   ][9   ][4   ][6   ][4   ]
[-1  ][-3  ][0   ][1   ][0   ][-1  ][1   ][-11 ]
[-2  ][0   ][0   ][-7  ][-11 ][-9  ][2   ][3   ]
[-3  ][-3  ][-2  ][0   ][-5  ][-3  ][-2  ][-1  ]
[0   ][-2  ][-1  ][-7  ][-1  ][1   ][0   ][-2  ]
[-2  ][-2  ][-2  ][-7  ][1   ][8   ][5   ][0   ]
[0   ][1   ][-2  ][-1  ][-1  ][-7  ][-1  ][3   ]
[1   ][-2  ][-1  ][0   ][-3  ][2   ][2   ][2   ]
[-2  ][-1  ][-1  ][1   ][-7  ][-4  ][-13 ][-9  ]
[-2  ][1   ][-2  ][-8  ][-4  ][-3  ][2   ][1   ]
[0   ][-1  ][-1  ][-7  ][-2  ][1   ][3   ][2   ]
[-3  ][-1  ][-1  ][-2  ][-1  ][1   ][-4  ][2   ]
[0   ][-2  ][0   ][1   ][1   ][-7  ][1   ][-3  ]
[-1  ][-1  ][-2  ][-3  ][-7  ][-7  ][-2  ][-2  ]
[-1  ][-1  ][0   ][6   ][10  ][6   ][-1  ][0   ]
[-1  ][0   ][-1  ][-7  ][-5  ][7   ][0   ][0   ]
[-1  ][-1  ][-1  ][-1  ][2   ][-15 ][-9  ][-5  ]
[0   ][0   ][-1  ][-4  ][-9  ][-3  ][1   ][5   ]
[1   ][-1  ][1   ][20  ][21  ][4   ][-3  ][2   ]
[0   ][-2  ][-1  ][-1  ][-1  ][-4  ][2   ][-2  ]
[-1  ][-1  ][-1  ][-10 ][-8  ][4   ][-1  ][-2  ]
[-1  ][-1  ][-2  ][-3  ][-4  ][-5  ][-10 ][-6  ]
[-2  ][-1  ][-1  ][-4  ][-1  ][4   ][1   ][-1  ]
[3   ][-2  ][0   ][7   ][3   ][-2  ][-3  ][5   ]
[1   ][-6  ][-1  ][-4  ][-6  ][-10 ][-5  ][-2  ]
[0   ][-2  ][0   ][7   ][-7  ][-30 ][-12 ][3   ]
[0   ][-3  ][0   ][-3  ][-3  ][2   ][-2  ][0   ]
[-1  ][-1  ][-1  ][0   ][0   ][-10 ][3   ][-3  ]
[-4  ][5   ][1   ][3   ][10  ][15  ][-3  ][-2  ]
[-3  ][-5  ][0   ][3   ][5   ][12  ][6   ][9   ]
[6   ][3   ][-3  ][-1  ][-9  ][-4  ][-15 ][-2  ]
[-3  ][15  ][2   ][1   ][7   ][-3  ][-14 ][-10 ]
[10  ][3   ][1   ][-1  ][0   ][0   ][-5  ][1   ]
[15  ][-18 ][1   ][-3  ][-4  ][1   ][-25 ][-50 ]
[-5  ][-1  ][11  ][-3  ][-4  ][-11 ][-2  ][-13 ]
[89  ][29  ][0   ][-9  ][-11 ][-27 ][5   ][-61 ]
[-53 ][76  ][-53 ][-4  ][-3  ][-14 ][6   ][65  ]
[-82 ][-78 ][-57 ][55  ][11  ][-7  ][30  ][70  ]
[-5  ][-69 ][2   ][43  ][-6  ][-27 ][-50 ][14  ]
[14  ][-30 ][-42 ][-6  ][-16 ][-6  ][-12 ][-82 ]
[35  ][-69 ][100 ][64  ][-4  ][0   ][14  ][17  ]
[60  ][33  ][-41 ][53  ][33  ][42  ][4   ][48  ]
[81  ][39  ][56  ][108 ][24  ][-33 ][-21 ][45  ]
[-64 ][45  ][-80 ][-67 ][35  ][6   ][-8  ][-76 ]
[15  ][31  ][-31 ][-31 ][-14 ][-5  ][7   ][51  ]
[10  ][-75 ][-60 ][-16 ][-33 ][-11 ][-21 ][-49 ]
[-15 ][2   ][-13 ][-18 ][-9  ][-16 ][-1  ][-11 ]
[3   ][-4  ][1   ][-6  ][-4  ][0   ][23  ][44  ]
[7   ][-4  ][3   ][-9  ][6   ][2   ][-2  ][26  ]
[4   ][-8  ][-4  ][-3  ][10  ][-4  ][-11 ][39  ]
[1   ][8   ][6   ][1   ][7   ][18  ][58  ][10  ]
[2   ][-1  ][0   ][-10 ][-13 ][-10 ][-23 ][12  ]
[-2  ][-2  ][2   ][1   ][2   ][10  ][19  ][-6  ]
[-2  ][-2  ][0   ][-5  ][-3  ][3   ][7   ][0   ]
[2   ][-1  ][0   ][3   ][-4  ][-17 ][-18 ][-4  ]
[2   ][1   ][0   ][-3  ][-1  ][5   ][-2  ][0   ]
[0   ][-30 ][-3  ][-6  ][-7  ][5   ][-1  ][0   ]
[3   ][29  ][4   ][-2  ][-2  ][-3  ][3   ][-7  ]
[2   ][-17 ][-6  ][-12 ][0   ][8   ][-2  ][13  ]
[2   ][5   ][-1  ][8   ][1   ][-13 ][9   ][3   ]
[3   ][-27 ][2   ][25  ][1   ][-7  ][3   ][7   ]
[-28 ][-59 ][-2  ][-21 ][-1  ][6   ][0   ][-1  ]
[-6  ][-42 ][27  ][22  ][13  ][32  ][-1  ][20  ]
[-10 ][37  ][-61 ][-3  ][-2  ][-4  ][-15 ][-40 ]
[-74 ][-79 ][-89 ][-29 ][7   ][-5  ][19  ][-8  ]
[-10 ][84  ][60  ][31  ][8   ][32  ][23  ][3   ]
[-29 ][32  ][29  ][-26 ][-3  ][-36 ][-8  ][107 ]
[-73 ][-105][8   ][28  ][-13 ][-6  ][-7  ][-42 ]
[24  ][-41 ][-40 ][6   ][-23 ][-16 ][-7  ][-21 ]
[9   ][-35 ][-26 ][-12 ][5   ][-15 ][-12 ][-7  ]
[-9  ][-58 ][16  ][-28 ][17  ][6   ][12  ][-31 ]
[13  ][16  ][21  ][-10 ][-7  ][-2  ][-85 ][48  ]
[18  ][16  ][-2  ][3   ][5   ][2   ][34  ][42  ]
[-1  ][1   ][-3  ][-1  ][4   ][0   ][-8  ][1   ]
[3   ][6   ][4   ][7   ][9   ][5   ][-15 ][17  ]
[2   ][-4  ][2   ][-1  ][2   ][-3  ][18  ][3   ]
[-10 ][-5  ][-2  ][-2  ][-4  ][-9  ][-15 ][-54 ]
[2   ][-1  ][-2  ][-4  ][2   ][-1  ][-14 ][6   ]
[-4  ][0   ][-1  ][-2  ][0   ][5   ][-1  ][0   ]
[-1  ][0   ][0   ][0   ][-2  ][-6  ][-2  ][-6  ]
[4   ][3   ][0   ][-4  ][-5  ][-22 ][4   ][-2  ]
[-9  ][-23 ][-6  ][-10 ][-6  ][3   ][-7  ][-6  ]
[-23 ][2   ][1   ][-6  ][-7  ][-11 ][-10 ][-40 ]
[13  ][-15 ][9   ][-2  ][-2  ][-7  ][31  ][19  ]
[-3  ][13  ][-84 ][-51 ][-6  ][2   ][-1  ][8   ]
[-51 ][-20 ][4   ][53  ][4   ][0   ][10  ][6   ]
[25  ][39  ][19  ][1   ][-16 ][-33 ][-46 ][7   ]
[58  ][-24 ][102 ][-70 ][-9  ][17  ][-6  ][-13 ]
[45  ][17  ][-32 ][-19 ][6   ][7   ][-39 ][-72 ]
[77  ][-8  ][-99 ][37  ][12  ][9   ][-1  ][79  ]
[-95 ][-89 ][74  ][25  ][37  ][59  ][44  ][5   ]
[-17 ][-12 ][-16 ][28  ][-6  ][-15 ][-16 ][-4  ]
[-42 ][18  ][101 ][64  ][10  ][-40 ][-43 ][-29 ]
[-2  ][-13 ][-94 ][-12 ][-19 ][-13 ][-12 ][10  ]
[-29 ][-16 ][-7  ][17  ][-1  ][4   ][2   ][7   ]
[8   ][-29 ][-33 ][29  ][92  ][9   ][-57 ][-69 ]
[-4  ][27  ][-9  ][-39 ][-52 ][-11 ][54  ][-46 ]
[15  ][4   ][3   ][13  ][26  ][2   ][-89 ][88  ]
[-19 ][-23 ][-1  ][35  ][38  ][-13 ][-16 ][13  ]
[-10 ][6   ][-7  ][2   ][8   ][-4  ][7   ][9   ]
[2   ][4   ][1   ][-7  ][-12 ][-22 ][-23 ][6   ]
[2   ][2   ][0   ][15  ][13  ][1   ][-11 ][14  ]
[4   ][-1  ][-2  ][-2  ][-4  ][-3  ][-5  ][12  ]
[0   ][-2  ][0   ][9   ][9   ][0   ][-13 ][-12 ]
[-3  ][-1  ][-1  ][-6  ][0   ][-5  ][2   ][-6  ]
[-1  ][-2  ][1   ][3   ][2   ][6   ][-3  ][1   ]
[-4  ][-1  ][0   ][6   ][3   ][1   ][11  ][-2  ]
[-1  ][-1  ][-2  ][3   ][-4  ][5   ][-6  ][-5  ]
[0   ][-1  ][-1  ][-6  ][0   ][1   ][-6  ][-3  ]
[-1  ][-1  ][-1  ][-6  ][-4  ][-2  ][-5  ][-4  ]
[0   ][0   ][-1  ][-1  ][-9  ][-9  ][0   ][2   ]
[1   ][-1  ][-2  ][-10 ][7   ][-5  ][-1  ][1   ]
[-1  ][0   ][0   ][9   ][5   ][-8  ][-16 ][0   ]
[-1  ][-1  ][0   ][-4  ][-4  ][0   ][6   ][0   ]
[0   ][-1  ][-3  ][-7  ][-2  ][-7  ][2   ][3   ]
[-1  ][-1  ][-2  ][0   ][3   ][1   ][-3  ][-2  ]
[-2  ][-1  ][-1  ][-6  ][-4  ][-6  ][0   ][-1  ]
[0   ][-1  ][-2  ][-4  ][2   ][-3  ][-1  ][0   ]
[1   ][0   ][-1  ][-1  ][-2  ][4   ][21  ][3   ]
[1   ][-1  ][-2  ][0   ][3   ][11  ][-4  ][0   ]
[0   ][0   ][-3  ][2   ][-5  ][-2  ][2   ][1   ]
[-1  ][1   ][0   ][-2  ][-8  ][-3  ][-3  ][-2  ]
[0   ][0   ][0   ][-5  ][0   ][-3  ][1   ][8   ]
[2   ][1   ][-1  ][-6  ][-9  ][-18 ][-12 ][-1  ]
[-2  ][-1  ][1   ][-1  ][9   ][12  ][1   ][-3  ]
[-1  ][-1  ][-1  ][7   ][1   ][1   ][1   ][-5  ]
[-1  ][-2  ][-1  ][-2  ][-3  ][0   ][-2  ][-3  ]
[0   ][-1  ][1   ][-3  ][2   ][13  ][5   ][1   ]
[1   ][0   ][-1  ][1   ][-4  ][-7  ][-11 ][2   ]
[2   ][-1  ][-1  ][6   ][-4  ][1   ][-4  ][-4  ]
[0   ][0   ][0   ][-11 ][-3  ][-7  ][-4  ][4   ]
[-1  ][-1  ][-2  ][-2  ][-6  ][-12 ][-2  ][-1  ]
[-2  ][0   ][0   ][3   ][-2  ][0   ][-1  ][-1  ]
[0   ][0   ][2   ][15  ][6   ][6   ][0   ][-4  ]
[1   ][-2  ][-1  ][4   ][11  ][-1  ][-5  ][-16 ]
[-4  ][-2  ][-2  ][-4  ][-1  ][5   ][-4  ][-2  ]
[2   ][-1  ][-1  ][0   ][-1  ][2   ][-2  ][6   ]
[-1  ][-1  ][-2  ][-3  ][1   ][7   ][-3  ][-2  ]
[0   ][-1  ][-2  ][-1  ][-6  ][-5  ][0   ][2   ]
[3   ][0   ][0   ][-4  ][4   ][6   ][2   ][-4  ]
[0   ][-1  ][-3  ][-1  ][-2  ][-9  ][-6  ][4   ]
[-1  ][0   ][1   ][1   ][6   ][3   ][3   ][3   ]
[-1  ][-2  ][-2  ][0   ][9   ][15  ][8   ][4   ]
[1   ][0   ][-1  ][-3  ][-9  ][-3  ][1   ][1   ]
[0   ][-1  ][0   ][-10 ][-10 ][-16 ][2   ][2   ]
[-2  ][-2  ][-1  ][0   ][4   ][8   ][-6  ][-4  ]
[1   ][0   ][0   ][21  ][20  ][10  ][1   ][2   ]
[4   ][-2  ][-1  ][-8  ][-2  ][-1  ][-1  ][-1  ]
[-4  ][-1  ][-3  ][-15 ][-8  ][14  ][1   ][2   ]
[-3  ][-1  ][1   ][-4  ][1   ][-4  ][2   ][0   ]
[-1  ][2   ][3   ][9   ][23  ][19  ][5   ][2   ]
[1   ][-1  ][-2  ][-4  ][2   ][-1  ][-1  ][2   ]
[-3  ][-1  ][-3  ][-7  ][-5  ][-2  ][5   ][0   ]
[2   ][1   ][-1  ][-5  ][-7  ][0   ][0   ][-3  ]
[-3  ][-1  ][0   ][-4  ][-5  ][-1  ][-2  ][-4  ]
[3   ][0   ][-1  ][5   ][4   ][-2  ][1   ][7   ]
[-1  ][-1  ][-2  ][-5  ][-7  ][-7  ][-7  ][-6  ]
[1   ][-1  ][1   ][2   ][4   ][-2  ][-1  ][0   ]
[-3  ][-5  ][0   ][0   ][-2  ][2   ][6   ][-16 ]
[0   ][-3  ][0   ][0   ][-2  ][0   ][-1  ][10  ]
[3   ][9   ][1   ][3   ][1   ][2   ][-8  ][3   ]
[4   ][11  ][6   ][-2  ][-4  ][-6  ][-33 ][-3  ]
[-10 ][-19 ][1   ][0   ][5   ][-3  ][1   ][-2  ]
[-15 ][5   ][0   ][5   ][22  ][1   ][4   ][7   ]
[12  ][7   ][4   ][-14 ][-12 ][0   ][-34 ][-21 ]
[-62 ][-93 ][-8  ][-25 ][-20 ][7   ][6   ][11  ]
[32  ][63  ][28  ][-10 ][-11 ][-3  ][-27 ][-47 ]
[-53 ][78  ][88  ][-83 ][-28 ][-21 ][-28 ][-103]
[96  ][49  ][42  ][-4  ][5   ][-32 ][-14 ][46  ]
[-22 ][-87 ][96  ][127 ][14  ][-11 ][-20 ][-54 ]
[6   ][26  ][87  ][46  ][19  ][18  ][-16 ][4   ]
[-66 ][-37 ][-9  ][-57 ][-24 ][-8  ][20  ][11  ]
[45  ][-35 ][-28 ][21  ][44  ][-1  ][-1  ][-4  ]
[-37 ][-40 ][22  ][-12 ][5   ][10  ][11  ][25  ]
[-20 ][-6  ][16  ][0   ][-27 ][-5  ][2   ][-31 ]
[-1  ][1   ][-4  ][8   ][-4  ][-1  ][-90 ][-47 ]
[-17 ][17  ][12  ][-3  ][-5  ][-6  ][12  ][-98 ]
[-5  ][0   ][16  ][10  ][-3  ][0   ][22  ][-28 ]
[5   ][2   ][0   ][0   ][1   ][-13 ][-13 ][41  ]
[2   ][-5  ][-22 ][-6  ][-7  ][-6  ][1   ][20  ]
[0   ][-4  ][-1  ][-3  ][-7  ][-18 ][-5  ][1   ]
[-2  ][0   ][0   ][9   ][6   ][0   ][-22 ][-10 ]
[1   ][-3  ][-3  ][-12 ][7   ][3   ][12  ][3   ]
[3   ][1   ][-2  ][6   ][8   ][5   ][4   ][15  ]
[-2  ][5   ][0   ][-1  ][-1  ][-1  ][-9  ][4   ]
[-18 ][-27 ][-25 ][-14 ][-2  ][-2  ][-6  ][1   ]
[13  ][36  ][-7  ][-14 ][-7  ][-3  ][-8  ][-8  ]
[-28 ][-19 ][4   ][-15 ][-10 ][-26 ][-9  ][-42 ]
[20  ][-29 ][-8  ][0   ][0   ][7   ][6   ][0   ]
[2   ][-18 ][17  ][10  ][-8  ][-31 ][-18 ][17  ]
[-20 ][-75 ][-46 ][6   ][13  ][-3  ][12  ][16  ]
[-67 ][66  ][57  ][-29 ][6   ][22  ][-17 ][-29 ]
[20  ][-63 ][26  ][-24 ][-15 ][-38 ][-16 ][0   ]
[-122][-128][-39 ][-59 ][-6  ][20  ][-4  ][-40 ]
[-26 ][127 ][-105][-21 ][5   ][14  ][30  ][11  ]
[65  ][-57 ][-8  ][-43 ][-24 ][4   ][-1  ][-15 ]
[92  ][95  ][92  ][104 ][26  ][8   ][10  ][53  ]
[-42 ][86  ][127 ][6   ][7   ][13  ][-16 ][-8  ]
[-1  ][1   ][-6  ][-23 ][-11 ][-9  ][-9  ][-23 ]
[-22 ][-12 ][-1  ][66  ][20  ][-8  ][-64 ][-106]
[-13 ][6   ][-61 ][-46 ][-34 ][-34 ][83  ][-52 ]
[1   ][-7  ][0   ][-15 ][-22 ][10  ][-8  ][13  ]
[-11 ][-7  ][-1  ][-4  ][2   ][-12 ][-21 ][-2  ]
[-1  ][-4  ][10  ][-6  ][-10 ][-5  ][11  ][18  ]
[9   ][3   ][9   ][-6  ][3   ][13  ][19  ][24  ]
[0   ][1   ][2   ][3   ][1   ][13  ][-11 ][1   ]
[-4  ][-5  ][1   ][2   ][7   ][-4  ][-34 ][-6  ]
[-1  ][1   ][-1  ][-3  ][-5  ][-2  ][-5  ][2   ]
[-1  ][-2  ][0   ][1   ][7   ][6   ][-12 ][-2  ]
[-1  ][1   ][-2  ][-7  ][-7  ][-6  ][5   ][13  ]
[11  ][22  ][-1  ][1   ][4   ][-1  ][-7  ][0   ]
[-6  ][-14 ][-5  ][4   ][2   ][5   ][7   ][-17 ]
[-33 ][-13 ][11  ][-14 ][1   ][7   ][-2  ][4   ]
[25  ][28  ][-10 ][46  ][-2  ][-3  ][-1  ][-2  ]
[20  ][-79 ][28  ][-10 ][-14 ][-21 ][-12 ][-48 ]
[74  ][-71 ][70  ][-12 ][-10 ][-16 ][-34 ][-46 ]
[63  ][127 ][34  ][14  ][18  ][57  ][22  ][-44 ]
[-49 ][-50 ][-94 ][-52 ][-18 ][-20 ][-14 ][-44 ]
[127 ][-33 ][3   ][-52 ][-7  ][10  ][3   ][9   ]
[60  ][-7  ][13  ][10  ][-9  ][-18 ][-15 ][1   ]
[-26 ][125 ][69  ][-11 ][-3  ][-14 ][-3  ][-1  ]
[36  ][103 ][124 ][21  ][-1  ][-4  ][20  ][41  ]
[36  ][55  ][-1  ][-17 ][17  ][18  ][-11 ][-25 ]
[-12 ][42  ][-41 ][3   ][25  ][-7  ][-13 ][5   ]
[-22 ][-38 ][-45 ][-4  ][-23 ][-13 ][-10 ][-21 ]
[7   ][-24 ][27  ][-21 ][-40 ][28  ][106 ][105 ]
[7   ][-2  ][-4  ][-6  ][-2  ][2   ][-19 ][-11 ]
[1   ][-6  ][0   ][2   ][-3  ][-2  ][-11 ][-4  ]
[0   ][-2  ][-5  ][-3  ][-5  ][-2  ][-17 ][0   ]
[2   ][1   ][4   ][7   ][10  ][2   ][3   ][-5  ]
[-2  ][-5  ][-1  ][-3  ][1   ][0   ][4   ][-7  ]
[-2  ][-1  ][-6  ][-5  ][-12 ][-3  ][-6  ][-6  ]
[1   ][-2  ][0   ][0   ][-9  ][-19 ][-6  ][0   ]
[-1  ][-5  ][-1  ][3   ][16  ][17  ][1   ][0   ]
[-1  ][0   ][-4  ][-10 ][-9  ][-7  ][-4  ][-1  ]
[-1  ][0   ][-3  ][-3  ][-6  ][-23 ][0   ][-4  ]
[-2  ][-2  ][-1  ][-2  ][-2  ][2   ][2   ][-2  ]
[0   ][0   ][1   ][-1  ][1   ][1   ][-4  ][-6  ]
[-1  ][-5  ][-5  ][-1  ][4   ][9   ][3   ][-2  ]
[0   ][8   ][0   ][-2  ][0   ][-3  ][0   ][6   ]
[1   ][-2  ][-2  ][-11 ][-8  ][-1  ][-4  ][-6  ]
[-2  ][-3  ][-1  ][0   ][-2  ][-1  ][0   ][2   ]
[0   ][-3  ][2   ][3   ][-1  ][1   ][-1  ][1   ]
[-1  ][-2  ][-1  ][1   ][-2  ][0   ][-2  ][-5  ]
[0   ][-2  ][-1  ][1   ][-4  ][-6  ][-3  ][2   ]
[0   ][0   ][-2  ][-2  ][-1  ][-5  ][1   ][2   ]
[-1  ][-2  ][-5  ][-6  ][-7  ][-20 ][-4  ][-8  ]
[-2  ][0   ][0   ][-7  ][4   ][15  ][-2  ][-3  ]
[1   ][-1  ][-2  ][-1  ][1   ][1   ][-1  ][6   ]
[2   ][0   ][4   ][2   ][-2  ][8   ][-2  ][2   ]
[-3  ][-8  ][-4  ][0   ][3   ][0   ][0   ][-2  ]
[1   ][2   ][3   ][1   ][-3  ][-18 ][-5  ][-5  ]
[-3  ][-3  ][-3  ][-5  ][-1  ][3   ][3   ][-8  ]
[2   ][-1  ][-2  ][4   ][-1  ][4   ][-4  ][-2  ]