Attempting to find a Myo...
Connected to a Myo armband!


[0   ][0   ][0   ][0   ][0   ][0   ][0   ][0   ]
[0   ][0   ][0   ][0   ][0   ][0   ][0   ][0   ]
[0   ][0   ][0   ][0   ][0   ][0   ][0   ][0   ]
[0   ][0   ][0   ][0   ][0   ][0   ][0   ][0   ]
[2   ][0   ][0   ][1   ][0   ][-4  ][-3  ][-1  ]
[3   ][3   ][3   ][2   ][1   ][-5  ][7   ][3   ]
[0   ][1   ][-3  ][-7  ][-30 ][-77 ][-15 ][3   ]
[0   ][0   ][-4  ][4   ][13  ][11  ][1   ][-8  ]
[2   ][-2  ][-2  ][-5  ][-1  ][-13 ][-7  ][3   ]
[70  ][100 ][-19 ][-16 ][-6  ][-14 ][-9  ][-9  ]
[-98 ][49  ][-74 ][1   ][2   ][11  ][-3  ][-1  ]
[-16 ][4   ][-108][-30 ][-15 ][-17 ][-9  ][-20 ]
[-6  ][-41 ][5   ][5   ][3   ][17  ][9   ][9   ]
[-8  ][-1  ][-12 ][-6  ][-8  ][-11 ][-5  ][-6  ]
[3   ][10  ][9   ][2   ][11  ][11  ][1   ][6   ]
[2   ][40  ][2   ][2   ][-1  ][-22 ][-9  ][-40 ]
[-3  ][-6  ][-1  ][0   ][0   ][8   ][4   ][9   ]
[4   ][-3  ][-3  ][1   ][4   ][13  ][2   ][9   ]
[4   ][8   ][-2  ][-6  ][-4  ][9   ][-12 ][4   ]
[-2  ][-2  ][0   ][0   ][-5  ][-7  ][1   ][-3  ]
[0   ][1   ][0   ][0   ][4   ][8   ][1   ][0   ]
[-1  ][-2  ][-1  ][-3  ][2   ][-1  ][3   ][2   ]
[1   ][0   ][0   ][-2  ][0   ][-7  ][1   ][1   ]
[-1  ][0   ][-2  ][-3  ][0   ][-3  ][5   ][-2  ]
[-4  ][-1  ][-2  ][2   ][4   ][2   ][-1  ][0   ]
[1   ][3   ][2   ][1   ][2   ][-8  ][-4  ][-3  ]
[-3  ][-6  ][-5  ][0   ][-2  ][2   ][-1  ][1   ]
[-7  ][-14 ][-7  ][-4  ][-6  ][1   ][1   ][9   ]
[6   ][-18 ][-8  ][-3  ][-4  ][0   ][-16 ][-8  ]
[-10 ][-21 ][1   ][3   ][-1  ][-17 ][-6  ][-14 ]
[-4  ][0   ][1   ][-3  ][4   ][-1  ][-5  ][3   ]
[-3  ][-6  ][-1  ][-1  ][4   ][-10 ][-3  ][5   ]
[-2  ][-2  ][-1  ][3   ][3   ][-7  ][1   ][5   ]
[1   ][-2  ][0   ][0   ][2   ][-4  ][-1  ][4   ]
[-3  ][0   ][-1  ][0   ][0   ][-23 ][-4  ][-23 ]
[2   ][-2  ][0   ][-1  ][-4  ][6   ][10  ][11  ]
[3   ][-3  ][0   ][-3  ][-4  ][6   ][9   ][18  ]
[0   ][1   ][-2  ][1   ][-2  ][-4  ][3   ][-1  ]
[-1  ][29  ][-11 ][-6  ][-4  ][1   ][3   ][3   ]
[0   ][-75 ][19  ][8   ][5   ][3   ][7   ][18  ]
[-37 ][-21 ][-105][-20 ][-4  ][3   ][-8  ][-11 ]
[127 ][99  ][127 ][11  ][4   ][-2  ][-1  ][-4  ]
[-2  ][25  ][0   ][-1  ][-3  ][10  ][-6  ][-15 ]
[-12 ][-27 ][-8  ][0   ][3   ][-8  ][0   ][2   ]
[0   ][-4  ][-6  ][-2  ][-1  ][-4  ][-1  ][1   ]
[-6  ][-10 ][-2  ][0   ][3   ][10  ][-6  ][-2  ]
[-1  ][-2  ][0   ][1   ][0   ][-8  ][-1  ][0   ]
[2   ][3   ][2   ][3   ][2   ][2   ][-2  ][1   ]
[-1  ][1   ][0   ][7   ][-3  ][-1  ][8   ][2   ]
[0   ][-1  ][-4  ][-10 ][-8  ][0   ][-4  ][-2  ]
[-2  ][-2  ][0   ][-7  ][-1  ][-4  ][-6  ][-2  ]
[-1  ][-2  ][-2  ][-4  ][3   ][-1  ][1   ][-1  ]
[-1  ][1   ][0   ][-1  ][3   ][-2  ][0   ][3   ]
[0   ][-3  ][0   ][0   ][1   ][3   ][-3  ][0   ]
[-6  ][-13 ][-5  ][-1  ][0   ][-7  ][-3  ][-2  ]
[21  ][57  ][-1  ][1   ][0   ][-7  ][0   ][2   ]
[-17 ][-21 ][-1  ][-2  ][0   ][2   ][0   ][-2  ]
[-33 ][-112][-10 ][-8  ][-6  ][-25 ][0   ][-2  ]
[3   ][106 ][22  ][-3  ][-4  ][-3  ][-2  ][-4  ]
[0   ][-21 ][-8  ][0   ][-4  ][6   ][-1  ][0   ]
[-6  ][2   ][1   ][-1  ][-4  ][8   ][-2  ][-2  ]
[-3  ][-5  ][-2  ][0   ][-1  ][2   ][1   ][0   ]
[1   ][-5  ][-2  ][-3  ][1   ][1   ][2   ][-1  ]
[-2  ][-2  ][-2  ][-2  ][-4  ][3   ][-2  ][-2  ]
[-2  ][-1  ][0   ][1   ][-1  ][1   ][8   ][-2  ]
[0   ][-2  ][-2  ][-1  ][1   ][-1  ][-1  ][0   ]
[0   ][2   ][0   ][-1  ][-1  ][-4  ][3   ][1   ]
[-1  ][1   ][-1  ][-1  ][-18 ][-4  ][-10 ][-1  ]
[-2  ][0   ][-2  ][0   ][-2  ][4   ][4   ][0   ]
[-2  ][0   ][-3  ][-1  ][-4  ][-3  ][-4  ][-1  ]
[-1  ][-2  ][-1  ][-1  ][-2  ][0   ][-3  ][-2  ]
[0   ][0   ][-1  ][0   ][-1  ][-2  ][-2  ][1   ]
[0   ][2   ][0   ][0   ][-3  ][1   ][0   ][0   ]
[-2  ][-2  ][0   ][2   ][1   ][0   ][0   ][-3  ]
[0   ][0   ][-2  ][0   ][-3  ][0   ][1   ][-1  ]
[-1  ][-1  ][-1  ][0   ][0   ][-2  ][-1  ][-2  ]
[0   ][-1  ][0   ][-2  ][-2  ][5   ][-2  ][3   ]
[-3  ][-1  ][-1  ][-1  ][-4  ][-2  ][-2  ][-1  ]
[0   ][-1  ][-1  ][-3  ][-1  ][2   ][0   ][-1  ]
[-1  ][1   ][-1  ][0   ][-2  ][2   ][-1  ][-1  ]
[-1  ][0   ][1   ][0   ][1   ][-1  ][-2  ][1   ]
[-1  ][-1  ][0   ][-1  ][-2  ][1   ][1   ][2   ]
[0   ][-1  ][1   ][0   ][-1  ][2   ][-1  ][-2  ]
[1   ][0   ][1   ][-2  ][0   ][-3  ][-1  ][0   ]
[-1  ][-2  ][-1  ][1   ][-3  ][9   ][1   ][-1  ]
[0   ][0   ][-2  ][0   ][2   ][-2  ][0   ][-1  ]
[-2  ][-1  ][-2  ][-2  ][0   ][-4  ][-2  ][-1  ]
[1   ][0   ][-1  ][-2  ][5   ][2   ][1   ][0   ]
[-1  ][-1  ][-1  ][-1  ][-3  ][0   ][-1  ][-1  ]
[4   ][5   ][-2  ][1   ][1   ][0   ][-2  ][-3  ]
[2   ][7   ][10  ][-1  ][-3  ][2   ][-1  ][1   ]
[-29 ][-110][-56 ][-7  ][1   ][2   ][-1  ][-4  ]
[22  ][-128][9   ][-13 ][-8  ][-6  ][-8  ][-13 ]
[-80 ][27  ][-93 ][-12 ][0   ][-5  ][1   ][-5  ]
[-71 ][-28 ][-97 ][-19 ][-11 ][-16 ][-2  ][-9  ]
[5   ][106 ][-56 ][-26 ][-17 ][-5  ][-13 ][-12 ]
[36  ][24  ][19  ][3   ][5   ][26  ][6   ][6   ]
[12  ][-6  ][-2  ][-5  ][-10 ][-1  ][-2  ][-3  ]
[8   ][3   ][6   ][10  ][21  ][1   ][1   ][-1  ]
[1   ][4   ][-1  ][-2  ][-2  ][-7  ][2   ][-2  ]
[2   ][0   ][0   ][-1  ][-4  ][-8  ][-1  ][-1  ]
[-1  ][-2  ][-4  ][-1  ][0   ][8   ][2   ][-4  ]
[-3  ][1   ][-1  ][-3  ][-3  ][0   ][-2  ][0   ]
[1   ][1   ][2   ][0   ][-15 ][7   ][2   ][1   ]
[1   ][0   ][0   ][0   ][2   ][3   ][2   ][0   ]
[0   ][0   ][-3  ][-2  ][3   ][-2  ][-1  ][1   ]
[-6  ][-6  ][-4  ][-1  ][-4  ][-17 ][0   ][-5  ]
[0   ][-1  ][2   ][-1  ][-2  ][-6  ][-4  ][1   ]
[4   ][14  ][9   ][4   ][2   ][8   ][2   ][-3  ]
[-11 ][8   ][-16 ][-4  ][-1  ][-9  ][2   ][5   ]
[-53 ][-78 ][-67 ][-18 ][1   ][-11 ][0   ][1   ]
[12  ][-44 ][26  ][5   ][-5  ][-10 ][-4  ][0   ]
[13  ][42  ][17  ][2   ][1   ][-7  ][0   ][-4  ]
[4   ][11  ][4   ][-3  ][-8  ][-9  ][3   ][-6  ]
[1   ][8   ][4   ][1   ][0   ][-1  ][0   ][3   ]
[0   ][3   ][1   ][0   ][-2  ][14  ][-2  ][-1  ]
[-2  ][1   ][0   ][-2  ][-2  ][-13 ][-1  ][-1  ]
[0   ][0   ][3   ][1   ][11  ][-6  ][4   ][4   ]
[-2  ][-5  ][-3  ][4   ][-3  ][-1  ][-4  ][-3  ]
[1   ][-1  ][-1  ][1   ][2   ][-3  ][4   ][3   ]
[0   ][-86 ][29  ][9   ][6   ][19  ][-2  ][-9  ]
[14  ][56  ][44  ][3   ][-2  ][16  ][-6  ][1   ]
[21  ][21  ][9   ][-1  ][-2  ][-11 ][7   ][11  ]
[-45 ][-38 ][-33 ][-7  ][1   ][1   ][-1  ][-5  ]
[-30 ][-11 ][-13 ][-2  ][4   ][-11 ][-1  ][1   ]
[-8  ][8   ][-16 ][-1  ][-1  ][-5  ][3   ][-4  ]
[-8  ][-4  ][-5  ][-2  ][-9  ][9   ][2   ][-3  ]
[-3  ][2   ][1   ][1   ][3   ][1   ][-4  ][-2  ]
[0   ][0   ][-1  ][-2  ][-2  ][4   ][-3  ][0   ]
[6   ][-2  ][-1  ][3   ][-6  ][5   ][3   ][0   ]
[-5  ][-3  ][-3  ][-1  ][-3  ][-11 ][-4  ][-2  ]
[1   ][1   ][-1  ][-1  ][-8  ][-6  ][-5  ][0   ]
[-4  ][-1  ][-2  ][3   ][12  ][1   ][-2  ][-2  ]
[-1  ][0   ][0   ][1   ][-1  ][-14 ][2   ][0   ]
[0   ][-1  ][-1  ][-5  ][-3  ][2   ][-2  ][0   ]
[0   ][0   ][-1  ][1   ][-1  ][0   ][-1  ][1   ]
[-5  ][-3  ][-6  ][-1  ][1   ][-1  ][1   ][1   ]
[-1  ][-11 ][8   ][2   ][-3  ][1   ][-3  ][-1  ]
[39  ][31  ][26  ][8   ][6   ][8   ][6   ][8   ]
[13  ][21  ][9   ][-1  ][-2  ][-4  ][0   ][0   ]
[-85 ][-128][-75 ][-9  ][-4  ][-6  ][-5  ][-17 ]
[-2  ][16  ][0   ][-5  ][-1  ][1   ][1   ][-10 ]
[6   ][4   ][10  ][0   ][0   ][8   ][-6  ][1   ]
[-4  ][-4  ][4   ][-4  ][1   ][-2  ][-2  ][0   ]
[3   ][1   ][2   ][2   ][0   ][-4  ][3   ][-1  ]
[-1  ][0   ][-2  ][-1  ][-7  ][-9  ][-2  ][-1  ]
[2   ][0   ][-2  ][-1  ][-3  ][1   ][-2  ][0   ]
[-1  ][-1  ][-1  ][0   ][4   ][1   ][1   ][-1  ]
[-3  ][0   ][0   ][-1  ][0   ][4   ][-4  ][-2  ]
[0   ][0   ][-1  ][-1  ][-1  ][-10 ][-2  ][1   ]
[-3  ][0   ][-1  ][0   ][0   ][-2  ][-1  ][1   ]
[-3  ][-1  ][2   ][3   ][0   ][-2  ][-1  ][-1  ]
[-2  ][0   ][-1  ][0   ][-2  ][-3  ][2   ][1   ]
[-1  ][-2  ][1   ][0   ][-2  ][-2  ][0   ][-2  ]
[0   ][-2  ][0   ][-2  ][0   ][-3  ][-2  ][0   ]
[-2  ][-1  ][0   ][-2  ][2   ][0   ][1   ][0   ]
[0   ][0   ][2   ][-1  ][1   ][-3  ][0   ][-1  ]
[-2  ][0   ][1   ][0   ][-1  ][-5  ][-1  ][1   ]
[1   ][-2  ][-2  ][0   ][-2  ][2   ][-3  ][-2  ]
[-2  ][-2  ][-1  ][-3  ][-3  ][0   ][-3  ][-3  ]
[-1  ][-1  ][0   ][1   ][-3  ][-1  ][0   ][-2  ]
[0   ][-2  ][-2  ][0   ][-3  ][-1  ][2   ][-2  ]
[0   ][0   ][-1  ][1   ][-1  ][-1  ][-1  ][-2  ]
[0   ][-2  ][1   ][-2  ][-4  ][-1  ][-2  ][0   ]
[1   ][1   ][-1  ][2   ][2   ][-3  ][3   ][0   ]
[-1  ][-2  ][-2  ][-3  ][-2  ][-1  ][3   ][1   ]
[-1  ][-1  ][-1  ][-2  ][-2  ][-1  ][-2  ][0   ]
[-1  ][-1  ][0   ][1   ][0   ][5   ][1   ][-3  ]
[0   ][0   ][1   ][2   ][-3  ][0   ][3   ][1   ]
[0   ][0   ][0   ][-1  ][2   ][2   ][1   ][1   ]
[-1  ][0   ][0   ][1   ][-3  ][3   ][-2  ][1   ]
[-3  ][0   ][-2  ][0   ][-3  ][-3  ][0   ][-3  ]
[0   ][-1  ][1   ][0   ][-1  ][-2  ][-6  ][-4  ]
[-1  ][0   ][-1  ][0   ][-3  ][-1  ][1   ][0   ]
[-1  ][1   ][-2  ][0   ][-2  ][-3  ][-3  ][-1  ]
[2   ][0   ][-2  ][-1  ][0   ][-2  ][-3  ][-3  ]
[0   ][0   ][-1  ][-2  ][-1  ][-3  ][1   ][0   ]
[-1  ][0   ][0   ][1   ][-3  ][-1  ][0   ][-2  ]
[1   ][-3  ][-2  ][-1  ][-2  ][2   ][-3  ][-2  ]
[1   ][0   ][-1  ][-2  ][1   ][-2  ][2   ][0   ]
[-2  ][-3  ][0   ][-2  ][-3  ][-4  ][0   ][0   ]
[-3  ][1   ][-1  ][-1  ][0   ][-2  ][-2  ][0   ]
[-3  ][-1  ][-1  ][-1  ][-1  ][-4  ][3   ][-2  ]
[-1  ][0   ][-1  ][-1  ][2   ][9   ][-1  ][-1  ]
[-6  ][1   ][-2  ][-1  ][0   ][3   ][-3  ][0   ]
[11  ][-62 ][-23 ][-8  ][3   ][8   ][-1  ][-8  ]
[90  ][-20 ][86  ][29  ][19  ][34  ][19  ][24  ]
[-66 ][-90 ][-66 ][-14 ][-9  ][-8  ][-10 ][-17 ]
[27  ][122 ][9   ][-5  ][-13 ][-20 ][0   ][6   ]
[70  ][12  ][96  ][18  ][0   ][-4  ][-6  ][-9  ]
[-56 ][-42 ][0   ][-1  ][-6  ][-18 ][-6  ][-4  ]
[-1  ][-19 ][-2  ][7   ][6   ][20  ][-1  ][-3  ]
[0   ][8   ][-2  ][-18 ][-7  ][-4  ][-2  ][-3  ]
[0   ][2   ][-3  ][1   ][0   ][7   ][1   ][-1  ]
[1   ][0   ][-1  ][1   ][5   ][3   ][-5  ][3   ]
[-2  ][-2  ][0   ][-5  ][-6  ][-16 ][1   ][-3  ]
[-3  ][-3  ][-5  ][0   ][20  ][-21 ][3   ][-1  ]
[0   ][-2  ][-3  ][-4  ][-14 ][8   ][-7  ][-2  ]
[-1  ][-1  ][0   ][0   ][-9  ][28  ][-1  ][-1  ]
[0   ][2   ][0   ][4   ][-1  ][2   ][1   ][0   ]
[0   ][-1  ][-1  ][-1  ][2   ][-8  ][1   ][-1  ]
[0   ][0   ][0   ][-2  ][-4  ][-22 ][-6  ][-2  ]
[-5  ][-7  ][-2  ][-1  ][-3  ][-10 ][-2  ][0   ]
[-11 ][-20 ][-13 ][-6  ][-3  ][10  ][-2  ][0   ]
[29  ][77  ][6   ][-2  ][3   ][9   ][-1  ][-5  ]
[-2  ][-29 ][-6  ][-1  ][-2  ][-6  ][6   ][4   ]
[20  ][39  ][6   ][0   ][6   ][6   ][8   ][12  ]
[-6  ][-15 ][-3  ][-2  ][-3  ][1   ][-3  ][3   ]
[-1  ][-5  ][-1  ][1   ][0   ][-2  ][1   ][5   ]
[-7  ][-4  ][-1  ][0   ][-4  ][-2  ][1   ][-2  ]
[-3  ][-1  ][-1  ][-3  ][2   ][3   ][2   ][-3  ]
[-2  ][0   ][0   ][0   ][0   ][-4  ][-3  ][-2  ]
[3   ][0   ][0   ][0   ][-2  ][-1  ][3   ][-2  ]
[-1  ][0   ][1   ][0   ][0   ][-1  ][0   ][0   ]
[1   ][-1  ][-1  ][-1  ][1   ][-1  ][0   ][0   ]
[-4  ][-16 ][-4  ][1   ][4   ][0   ][0   ][-2  ]
[-9  ][-20 ][-1  ][-3  ][-2  ][-6  ][-5  ][-11 ]
[19  ][42  ][2   ][4   ][0   ][11  ][-1  ][-4  ]
[-28 ][-2  ][-17 ][-3  ][-5  ][-5  ][1   ][-12 ]
[-76 ][-8  ][-72 ][-8  ][-1  ][1   ][-8  ][-17 ]
[6   ][-12 ][1   ][-4  ][-1  ][-11 ][-6  ][0   ]
[-22 ][-110][-18 ][-6  ][0   ][5   ][-3  ][-3  ]
[6   ][-18 ][4   ][-2  ][-3  ][-4  ][-5  ][-1  ]
[0   ][-3  ][0   ][-2  ][-1  ][10  ][0   ][1   ]
[1   ][-6  ][-1  ][-3  ][-11 ][-11 ][-2  ][1   ]
[0   ][1   ][1   ][1   ][3   ][-6  ][0   ][1   ]
[-2  ][-3  ][-2  ][-11 ][-9  ][6   ][1   ][0   ]
[4   ][4   ][1   ][0   ][-18 ][-5  ][-3  ][1   ]
[1   ][-2  ][-1  ][1   ][10  ][0   ][3   ][-1  ]
[-1  ][-1  ][-4  ][2   ][9   ][5   ][3   ][0   ]
[0   ][-1  ][0   ][-2  ][2   ][1   ][0   ][1   ]
[-1  ][0   ][-1  ][0   ][2   ][1   ][1   ][-3  ]
[-1  ][0   ][0   ][-1  ][-4  ][4   ][-3  ][-1  ]
[-1  ][4   ][-1  ][2   ][-1  ][1   ][-1  ][-2  ]
[-6  ][-12 ][3   ][-1  ][-1  ][1   ][2   ][-14 ]
[1   ][-1  ][0   ][0   ][-2  ][-3  ][0   ][-1  ]
[5   ][1   ][0   ][1   ][-4  ][3   ][-7  ][-7  ]
[-28 ][-72 ][-23 ][-6  ][-3  ][-4  ][-3  ][6   ]
[8   ][21  ][0   ][-3  ][-6  ][-13 ][4   ][7   ]
[-2  ][-6  ][-2  ][-2  ][-1  ][-1  ][-1  ][-4  ]
[3   ][7   ][-2  ][-1  ][0   ][2   ][0   ][-1  ]
[3   ][6   ][-1  ][1   ][1   ][2   ][2   ][2   ]
[-1  ][0   ][2   ][-2  ][0   ][-3  ][-2  ][-1  ]
[0   ][2   ][0   ][-2  ][-4  ][-4  ][-2  ][0   ]
[-2  ][0   ][-1  ][-1  ][0   ][1   ][1   ][0   ]
[-2  ][-1  ][1   ][0   ][3   ][2   ][3   ][-2  ]
[0   ][-2  ][-1  ][0   ][0   ][0   ][2   ][-1  ]
[1   ][0   ][-1  ][-2  ][-3  ][-2  ][2   ][0   ]
[2   ][-1  ][-1  ][-1  ][-1  ][-1  ][-1  ][-1  ]
[1   ][-3  ][1   ][-1  ][-6  ][-3  ][-3  ][0   ]
[-3  ][-1  ][0   ][-1  ][-1  ][-1  ][-5  ][-2  ]
[0   ][0   ][0   ][0   ][0   ][1   ][0   ][0   ]
[-1  ][0   ][-1  ][-1  ][0   ][-1  ][-4  ][-2  ]
[0   ][-1  ][-1  ][0   ][-1  ][-1  ][0   ][-1  ]
[0   ][0   ][-2  ][-2  ][-4  ][0   ][1   ][1   ]
[0   ][-1  ][0   ][0   ][3   ][1   ][0   ][-1  ]
[-1  ][0   ][-2  ][-1  ][1   ][0   ][-1  ][3   ]
[-1  ][-1  ][-2  ][-2  ][-4  ][1   ][0   ][-2  ]
[0   ][0   ][-3  ][0   ][0   ][1   ][2   ][-1  ]
[-1  ][0   ][-1  ][-2  ][0   ][-1  ][-1  ][0   ]
[-2  ][-2  ][0   ][-2  ][4   ][0   ][0   ][-2  ]
[1   ][0   ][1   ][1   ][0   ][-1  ][-1  ][-2  ]
[1   ][-1  ][-4  ][-2  ][-4  ][-3  ][2   ][-2  ]
[-1  ][-1  ][-1  ][-1  ][-2  ][-1  ][-2  ][0   ]
[-1  ][-2  ][-1  ][-1  ][-4  ][0   ][1   ][0   ]
[0   ][-1  ][-2  ][-1  ][0   ][-3  ][-1  ][0   ]
[-3  ][-1  ][-1  ][0   ][1   ][-2  ][-1  ][1   ]
[0   ][-1  ][-2  ][0   ][-3  ][1   ][-3  ][-2  ]
[-1  ][-1  ][-1  ][-1  ][-1  ][-1  ][-2  ][-1  ]
[-1  ][-1  ][-1  ][0   ][1   ][-2  ][1   ][1   ]
[-2  ][0   ][-2  ][0   ][-3  ][0   ][-1  ][-1  ]
[-2  ][-2  ][-3  ][-1  ][-2  ][-3  ][2   ][-2  ]
[-3  ][-2  ][0   ][-2  ][-2  ][11  ][0   ][-2  ]
[-1  ][-2  ][0   ][-1  ][-1  ][1   ][1   ][1   ]
[1   ][1   ][1   ][1   ][-2  ][3   ][1   ][0   ]
[-1  ][1   ][1   ][-4  ][-7  ][-2  ][0   ][2   ]
[-1  ][-1  ][-2  ][-1  ][-2  ][-1  ][1   ][-1  ]
[-7  ][-24 ][-4  ][-3  ][-3  ][1   ][-1  ][-2  ]
[9   ][56  ][8   ][2   ][-1  ][6   ][0   ][2   ]
[-12 ][42  ][-28 ][-9  ][-6  ][-1  ][-2  ][-1  ]
[23  ][31  ][13  ][12  ][1   ][-30 ][22  ][53  ]
[-45 ][-128][22  ][15  ][23  ][9   ][2   ][-52 ]
[-41 ][-79 ][-65 ][-11 ][-37 ][33  ][-5  ][4   ]
[0   ][-10 ][-12 ][-1  ][8   ][12  ][-13 ][-17 ]
[1   ][21  ][8   ][-10 ][-8  ][-6  ][-19 ][-17 ]
[2   ][2   ][-1  ][0   ][6   ][12  ][-2  ][6   ]
[2   ][3   ][0   ][2   ][3   ][11  ][2   ][-5  ]
[3   ][-4  ][-2  ][1   ][3   ][11  ][0   ][0   ]
[1   ][1   ][0   ][2   ][-10 ][1   ][8   ][15  ]
[-1  ][-2  ][-1  ][1   ][27  ][-4  ][-1  ][-3  ]
[1   ][0   ][-3  ][4   ][-7  ][-24 ][-1  ][9   ]
[-1  ][-2  ][0   ][-5  ][0   ][-2  ][-2  ][-2  ]
[0   ][2   ][1   ][1   ][13  ][-7  ][1   ][9   ]
[1   ][0   ][0   ][-1  ][-12 ][-3  ][1   ][0   ]
[-3  ][-2  ][1   ][1   ][3   ][9   ][-1  ][-6  ]
[0   ][1   ][-2  ][1   ][1   ][-1  ][3   ][13  ]
[-3  ][-2  ][-2  ][-2  ][0   ][5   ][-2  ][14  ]
[-3  ][2   ][-5  ][-1  ][0   ][2   ][4   ][1   ]
[-1  ][-7  ][-4  ][-2  ][2   ][-2  ][3   ][6   ]
[32  ][72  ][40  ][8   ][3   ][3   ][5   ][11  ]
[-35 ][-81 ][-20 ][-7  ][-2  ][1   ][6   ][3   ]
[-3  ][-20 ][-2  ][2   ][2   ][-3  ][1   ][17  ]
[15  ][12  ][21  ][3   ][1   ][-3  ][0   ][-9  ]
[-1  ][-7  ][-5  ][-2  ][0   ][-7  ][7   ][-2  ]
[1   ][2   ][-5  ][-3  ][-2  ][-1  ][-1  ][-5  ]
[-2  ][3   ][-1  ][-1  ][-2  ][-2  ][-2  ][-20 ]
[-1  ][-1  ][0   ][-1  ][0   ][-2  ][-3  ][24  ]
[1   ][-1  ][-2  ][7   ][2   ][0   ][3   ][-8  ]
[0   ][0   ][0   ][0   ][0   ][1   ][-1  ][-10 ]
[0   ][-1  ][0   ][-1  ][2   ][-3  ][-1  ][-2  ]
[-3  ][0   ][0   ][0   ][0   ][-1  ][-2  ][-2  ]
[1   ][0   ][-2  ][-3  ][-4  ][-2  ][-1  ][0   ]
[-9  ][-24 ][-9  ][-3  ][-1  ][-10 ][-2  ][3   ]
[10  ][-12 ][24  ][8   ][3   ][-12 ][-24 ][-19 ]
[-10 ][-42 ][-21 ][-11 ][-4  ][13  ][0   ][-4  ]
[-83 ][-20 ][-92 ][-25 ][-6  ][-18 ][12  ][27  ]
[-6  ][12  ][4   ][-3  ][-8  ][6   ][8   ][1   ]
[4   ][27  ][-7  ][-3  ][-5  ][-33 ][2   ][-14 ]
[-4  ][4   ][6   ][1   ][-1  ][15  ][0   ][-1  ]
[-1  ][4   ][1   ][-1  ][8   ][22  ][-16 ][3   ]
[0   ][1   ][3   ][1   ][-6  ][-19 ][-1  ][2   ]
[0   ][1   ][-1  ][-2  ][7   ][7   ][1   ][-8  ]
[1   ][2   ][0   ][-7  ][-6  ][-10 ][-1  ][-5  ]
[-4  ][-3  ][-3  ][-5  ][13  ][-3  ][9   ][-3  ]
[-2  ][0   ][0   ][5   ][2   ][-2  ][-21 ][-5  ]
[-1  ][0   ][-1  ][-3  ][-6  ][-4  ][0   ][-1  ]
[-1  ][-3  ][-1  ][-1  ][3   ][-9  ][-2  ][0   ]
[-2  ][1   ][-1  ][-1  ][-5  ][1   ][0   ][-5  ]
[-2  ][-2  ][-1  ][-4  ][-4  ][-1  ][-2  ][-4  ]
[0   ][-1  ][0   ][0   ][1   ][9   ][2   ][2   ]
[1   ][-4  ][1   ][1   ][-16 ][-10 ][0   ][21  ]
[-5  ][0   ][-7  ][-4  ][-1  ][0   ][-5  ][-10 ]
[-10 ][-28 ][-9  ][-5  ][0   ][-9  ][-1  ][-3  ]
[-33 ][-99 ][-19 ][-3  ][-4  ][0   ][0   ][-8  ]
[4   ][45  ][-19 ][-5  ][-3  ][-5  ][-1  ][-1  ]
[-8  ][-20 ][-1  ][1   ][0   ][-2  ][-1  ][-1  ]
[-10 ][-33 ][-17 ][-6  ][-3  ][0   ][-4  ][-3  ]
[-2  ][3   ][3   ][-2  ][-2  ][-1  ][1   ][-1  ]
[-2  ][-1  ][1   ][0   ][0   ][-1  ][-2  ][-1  ]
[1   ][-1  ][0   ][-1  ][-1  ][-5  ][-2  ][0   ]
[-1  ][-3  ][-3  ][-2  ][1   ][-3  ][-1  ][0   ]
[0   ][1   ][1   ][-2  ][0   ][2   ][1   ][-3  ]
[-1  ][-2  ][-1  ][0   ][1   ][-1  ][0   ][0   ]
[-2  ][-2  ][-1  ][0   ][-1  ][-2  ][-1  ][-3  ]
[-1  ][0   ][-1  ][0   ][-2  ][-1  ][-1  ][-1  ]
[-1  ][-1  ][0   ][0   ][-1  ][0   ][1   ][0   ]
[-2  ][2   ][0   ][0   ][1   ][1   ][0   ][-2  ]
[0   ][-2  ][-1  ][-2  ][-2  ][-1  ][-1  ][-1  ]
[-1  ][2   ][-2  ][-1  ][0   ][0   ][0   ][1   ]
[0   ][-1  ][0   ][0   ][-3  ][0   ][-2  ][-1  ]
[-1  ][-3  ][-1  ][-2  ][-4  ][1   ][-1  ][-2  ]
[-2  ][0   ][-1  ][-1  ][0   ][-2  ][1   ][-1  ]
[0   ][-1  ][-1  ][-1  ][-2  ][0   ][1   ][-1  ]
[-1  ][-3  ][-1  ][-2  ][-2  ][-1  ][-1  ][-1  ]
[-2  ][-1  ][0   ][1   ][-1  ][2   ][0   ][0   ]
[0   ][-1  ][0   ][-1  ][-1  ][-2  ][1   ][0   ]
[-1  ][-1  ][-2  ][0   ][1   ][0   ][-1  ][0   ]
[-1  ][-1  ][0   ][-1  ][-3  ][1   ][0   ][1   ]
[-1  ][-3  ][0   ][-2  ][0   ][-1  ][-1  ][-2  ]
[0   ][0   ][-1  ][0   ][-1  ][-2  ][1   ][-1  ]
[-1  ][0   ][-1  ][-1  ][-1  ][2   ][-1  ][-1  ]
[0   ][-1  ][-3  ][-1  ][0   ][0   ][-2  ][0   ]
[-2  ][-1  ][-1  ][1   ][-1  ][0   ][2   ][-2  ]
[-1  ][0   ][-1  ][-2  ][-2  ][-2  ][0   ][-1  ]
[1   ][0   ][0   ][-1  ][-1  ][-2  ][-1  ][-2  ]
[0   ][-1  ][1   ][1   ][0   ][-2  ][0   ][2   ]
[-2  ][-2  ][0   ][1   ][0   ][2   ][0   ][-1  ]
[-2  ][0   ][0   ][0   ][-1  ][2   ][0   ][-3  ]
[-1  ][-2  ][-2  ][-1  ][-4  ][0   ][0   ][-1  ]
[-1  ][-2  ][0   ][-2  ][-3  ][-2  ][-1  ][2   ]
[1   ][0   ][-1  ][0   ][-1  ][0   ][0   ][-2  ]
[0   ][0   ][-1  ][-2  ][0   ][-1  ][3   ][-1  ]
[-1  ][-1  ][0   ][1   ][-2  ][0   ][-3  ][-1  ]
[-1  ][0   ][-1  ][1   ][-1  ][-3  ][1   ][-1  ]
[0   ][0   ][0   ][-1  ][1   ][-1  ][-2  ][-1  ]
[-1  ][0   ][-1  ][0   ][-2  ][-3  ][-3  ][0   ]
[-1  ][0   ][-1  ][-1  ][0   ][1   ][-1  ][2   ]
[1   ][2   ][-2  ][-3  ][-1  ][-6  ][-2  ][-1  ]
[0   ][-1  ][0   ][-2  ][0   ][-1  ][-2  ][0   ]
[-1  ][-1  ][1   ][0   ][1   ][0   ][-1  ][0   ]
[-2  ][0   ][1   ][0   ][1   ][1   ][1   ][-2  ]
[0   ][-2  ][0   ][0   ][1   ][-2  ][-1  ][-3  ]
[-1  ][7   ][-5  ][-3  ][-2  ][0   ][1   ][-5  ]
[3   ][0   ][5   ][-1  ][-6  ][5   ][0   ][0   ]
[-23 ][50  ][-15 ][-3  ][-3  ][-7  ][4   ][-8  ]
[-22 ][30  ][-38 ][-7  ][-5  ][0   ][7   ][5   ]
[-77 ][-32 ][-94 ][-17 ][2   ][2   ][-3  ][-1  ]
[29  ][58  ][58  ][9   ][-6  ][34  ][9   ][23  ]
[24  ][46  ][58  ][34  ][15  ][2   ][5   ][11  ]
[22  ][18  ][0   ][6   ][15  ][-1  ][15  ][-14 ]
[0   ][16  ][9   ][1   ][6   ][6   ][6   ][-4  ]
[0   ][3   ][-9  ][-4  ][0   ][1   ][-4  ][-3  ]
[0   ][1   ][-2  ][-2  ][-4  ][18  ][3   ][7   ]
[-3  ][-2  ][-3  ][-1  ][-3  ][5   ][2   ][3   ]
[-3  ][-1  ][-3  ][-2  ][-5  ][3   ][3   ][0   ]
[3   ][2   ][1   ][-2  ][-4  ][10  ][-7  ][-3  ]
[1   ][1   ][1   ][-2  ][6   ][-17 ][1   ][5   ]
[-3  ][-2  ][-2  ][-2  ][-4  ][1   ][3   ][-3  ]
[0   ][0   ][0   ][1   ][-1  ][3   ][1   ][5   ]
[0   ][-3  ][-1  ][-3  ][13  ][4   ][-1  ][-4  ]
[0   ][0   ][-1  ][0   ][-2  ][2   ][1   ][-1  ]
[7   ][14  ][5   ][2   ][-1  ][0   ][0   ][3   ]
[-25 ][-54 ][-16 ][-4  ][-2  ][-1  ][-1  ][-5  ]
[13  ][97  ][8   ][0   ][-2  ][0   ][3   ][-1  ]
[9   ][25  ][18  ][10  ][10  ][3   ][4   ][5   ]
[1   ][-46 ][7   ][0   ][0   ][1   ][-2  ][-1  ]
[-11 ][13  ][-7  ][-3  ][-3  ][-1  ][-1  ][-3  ]
[4   ][15  ][3   ][1   ][0   ][-1  ][1   ][2   ]
[1   ][-3  ][0   ][0   ][-3  ][-3  ][-1  ][1   ]
[0   ][3   ][0   ][-1  ][1   ][2   ][-4  ][-3  ]
[1   ][-2  ][-2  ][-1  ][1   ][1   ][1   ][0   ]
[1   ][1   ][1   ][1   ][0   ][4   ][0   ][-1  ]
[-1  ][-3  ][-3  ][-2  ][-1  ][1   ][-4  ][-4  ]
[0   ][0   ][0   ][-1  ][-2  ][1   ][-5  ][0   ]
[-2  ][1   ][-1  ][-2  ][-2  ][-3  ][1   ][-4  ]
[19  ][13  ][2   ][5   ][2   ][4   ][9   ][11  ]
[3   ][16  ][41  ][2   ][1   ][-8  ][1   ][1   ]
[-18 ][-75 ][6   ][2   ][0   ][-10 ][-4  ][1   ]
[0   ][52  ][75  ][14  ][1   ][7   ][-1  ][-19 ]
[-28 ][18  ][16  ][6   ][6   ][-3  ][7   ][9   ]
[-3  ][1   ][-16 ][-1  ][5   ][4   ][14  ][10  ]
[-6  ][-14 ][-10 ][-4  ][-2  ][-11 ][-16 ][-2  ]
[-4  ][0   ][-5  ][-6  ][-24 ][-10 ][-6  ][-5  ]
[-5  ][-5  ][-5  ][-4  ][-3  ][16  ][-2  ][-5  ]
[-1  ][2   ][0   ][0   ][0   ][0   ][5   ][-6  ]
[1   ][-1  ][-2  ][-4  ][5   ][-16 ][-2  ][3   ]
[-1  ][-1  ][-2  ][7   ][9   ][12  ][5   ][2   ]
[-4  ][-2  ][-1  ][3   ][1   ][-10 ][-7  ][-11 ]
[1   ][-2  ][1   ][2   ][13  ][2   ][-8  ][3   ]
[1   ][2   ][-2  ][-7  ][2   ][2   ][-3  ][4   ]
[-2  ][-3  ][-2  ][-5  ][-6  ][2   ][-2  ][-1  ]
[0   ][-1  ][-2  ][0   ][4   ][-2  ][1   ][1   ]
[0   ][1   ][-1  ][2   ][2   ][-2  ][-4  ][1   ]
[12  ][35  ][10  ][2   ][0   ][2   ][-1  ][1   ]
[-7  ][-11 ][-14 ][-3  ][-3  ][-1  ][-5  ][-9  ]
[-3  ][2   ][6   ][-2  ][-3  ][-3  ][-1  ][-1  ]
[3   ][7   ][4   ][0   ][-1  ][0   ][-3  ][-2  ]
[1   ][7   ][3   ][0   ][-1  ][1   ][0   ][0   ]
[-38 ][-69 ][-27 ][-9  ][-5  ][-3  ][-2  ][-5  ]
[-42 ][-72 ][-20 ][-8  ][-3  ][5   ][1   ][-6  ]
[-4  ][2   ][4   ][-1  ][-3  ][-5  ][4   ][9   ]
[-8  ][-11 ][-3  ][-1  ][3   ][-15 ][-1  ][1   ]
[-3  ][-1  ][-1  ][-1  ][-1  ][4   ][1   ][-1  ]
[-3  ][-2  ][-3  ][-2  ][-1  ][2   ][0   ][0   ]
[-1  ][-1  ][-1  ][-1  ][-2  ][1   ][1   ][-1  ]
[-1  ][-1  ][0   ][-1  ][-2  ][-1  ][-3  ][-2  ]
[-1  ][-1  ][0   ][-1  ][2   ][0   ][-2  ][-1  ]
[-3  ][-1  ][-1  ][-2  ][2   ][-3  ][-1  ][-3  ]
[0   ][-2  ][0   ][-2  ][1   ][1   ][1   ][-1  ]
[1   ][0   ][-1  ][-1  ][1   ][-2  ][2   ][0   ]
[1   ][0   ][-2  ][-1  ][0   ][1   ][1   ][-2  ]
[-1  ][-2  ][-1  ][1   ][0   ][-1  ][0   ][0   ]
[0   ][1   ][-2  ][0   ][1   ][3   ][-2  ][1   ]
[-1  ][-1  ][-2  ][-1  ][-1  ][-1  ][-3  ][1   ]
[0   ][-2  ][-1  ][0   ][0   ][0   ][1   ][1   ]
[0   ][-1  ][0   ][0   ][-6  ][-2  ][2   ][1   ]
[-4  ][0   ][1   ][0   ][1   ][-2  ][0   ][2   ]
[0   ][-1  ][-1  ][-1  ][1   ][1   ][1   ][0   ]
[0   ][-1  ][0   ][-2  ][-2  ][0   ][-1  ][-2  ]
[-2  ][-2  ][0   ][-1  ][-1  ][0   ][-1  ][-2  ]
[-3  ][-2  ][-1  ][-1  ][1   ][2   ][-4  ][-2  ]
[-1  ][0   ][0   ][1   ][-1  ][-2  ][-1  ][-1  ]
[-1  ][-2  ][-1  ][-2  ][3   ][-1  ][2   ][-1  ]
[-1  ][-1  ][-1  ][1   ][0   ][-3  ][1   ][-1  ]
[-1  ][-1  ][-2  ][0   ][-1  ][0   ][-1  ][-1  ]
[-1  ][-2  ][-1  ][1   ][-3  ][-1  ][-1  ][-2  ]
[2   ][1   ][0   ][1   ][-1  ][0   ][0   ][2   ]
[-4  ][0   ][-1  ][-1  ][-1  ][1   ][-2  ][-1  ]
[-1  ][-1  ][0   ][-1  ][0   ][0   ][-2  ][-2  ]
[-1  ][0   ][-2  ][0   ][-1  ][-2  ][-2  ][0   ]
[-1  ][-1  ][-2  ][-2  ][-3  ][-1  ][-4  ][-2  ]
[0   ][0   ][1   ][1   ][2   ][5   ][3   ][1   ]
[1   ][-1  ][0   ][0   ][-2  ][1   ][-3  ][0   ]
[-2  ][-2  ][-2  ][-3  ][-6  ][2   ][-2  ][-2  ]
[-4  ][-2  ][-5  ][-4  ][0   ][-12 ][-2  ][-3  ]
[13  ][-73 ][4   ][-2  ][-2  ][5   ][-4  ][-4  ]
[-5  ][-34 ][14  ][2   ][21  ][-2  ][2   ][3   ]
[67  ][39  ][50  ][13  ][0   ][-2  ][4   ][9   ]
[34  ][-79 ][90  ][24  ][8   ][7   ][7   ][12  ]
[16  ][-5  ][-11 ][0   ][3   ][3   ][2   ][6   ]
[-43 ][-41 ][10  ][-5  ][-7  ][-10 ][-6  ][-3  ]
[-8  ][77  ][13  ][-2  ][-11 ][-29 ][-9  ][-12 ]
[-15 ][-28 ][8   ][3   ][1   ][14  ][-13 ][-9  ]
[3   ][-4  ][-1  ][0   ][-1  ][-10 ][3   ][-1  ]
[-6  ][-9  ][-3  ][-7  ][-1  ][-6  ][2   ][4   ]
[2   ][-1  ][0   ][-1  ][-10 ][-1  ][6   ][0   ]
[-1  ][-1  ][1   ][1   ][13  ][8   ][-5  ][1   ]
[1   ][-2  ][-2  ][0   ][-6  ][-2  ][0   ][-2  ]
[-3  ][-1  ][-3  ][-4  ][-7  ][4   ][-3  ][-7  ]
[-2  ][-1  ][0   ][1   ][-6  ][8   ][5   ][6   ]
[-2  ][0   ][1   ][-2  ][4   ][-7  ][-1  ][2   ]
[0   ][0   ][-1  ][-2  ][1   ][-1  ][-3  ][0   ]
[-1  ][-3  ][-1  ][0   ][-3  ][-2  ][-5  ][-6  ]
[-2  ][-4  ][-3  ][-2  ][-3  ][-13 ][0   ][-1  ]
[-2  ][-5  ][-1  ][-2  ][-1  ][4   ][-3  ][-3  ]
[-1  ][-11 ][-3  ][-1  ][0   ][-2  ][-4  ][1   ]
[18  ][60  ][21  ][3   ][1   ][6   ][2   ][5   ]
[0   ][27  ][-8  ][-2  ][-2  ][-1  ][-1  ][-1  ]
[-11 ][-37 ][1   ][23  ][1   ][1   ][2   ][-2  ]
[-6  ][-18 ][4   ][23  ][1   ][1   ][-3  ][0   ]
[6   ][11  ][-1  ][-3  ][-1  ][-10 ][3   ][8   ]
[0   ][2   ][0   ][-1  ][-2  ][-2  ][-3  ][-12 ]
[-1  ][1   ][0   ][-1  ][-4  ][1   ][-3  ][0   ]
[2   ][1   ][0   ][-4  ][-2  ][4   ][3   ][6   ]
[-2  ][-4  ][-3  ][-2  ][-1  ][4   ][3   ][-4  ]
[7   ][36  ][16  ][3   ][-2  ][-3  ][-8  ][-16 ]
[-37 ][-73 ][-21 ][-2  ][4   ][-2  ][-2  ][1   ]
[20  ][26  ][22  ][9   ][3   ][-19 ][-12 ][2   ]
[48  ][99  ][25  ][13  ][-4  ][-12 ][3   ][13  ]
[-2  ][-16 ][-34 ][-12 ][-11 ][-18 ][-7  ][-4  ]
[-15 ][-23 ][-4  ][2   ][2   ][-7  ][-5  ][2   ]
[6   ][-11 ][-4  ][-1  ][-1  ][-18 ][-8  ][13  ]
[5   ][-5  ][3   ][0   ][1   ][11  ][-1  ][9   ]
[0   ][-6  ][-2  ][8   ][8   ][7   ][-1  ][-11 ]
[0   ][-1  ][-1  ][2   ][-1  ][3   ][1   ][0   ]
[0   ][1   ][1   ][0   ][3   ][8   ][6   ][0   ]
[0   ][-1  ][-1  ][-1  ][-2  ][2   ][2   ][2   ]
[-2  ][-2  ][1   ][2   ][4   ][-7  ][6   ][-8  ]
[0   ][-1  ][-2  ][-9  ][-3  ][-3  ][-5  ][-3  ]
[-1  ][0   ][-1  ][-1  ][1   ][-9  ][2   ][0   ]
[-4  ][-3  ][-3  ][0   ][4   ][-1  ][-3  ][-3  ]
[-6  ][-20 ][-3  ][-1  ][-2  ][-6  ][-4  ][-2  ]
[2   ][1   ][0   ][0   ][-1  ][-1  ][-3  ][0   ]
[21  ][21  ][-9  ][-57 ][-4  ][2   ][0   ][3   ]
[-13 ][-50 ][-13 ][-1  ][-4  ][4   ][0   ][-3  ]
[4   ][5   ][20  ][4   ][2   ][2   ][5   ][5   ]
[-8  ][-23 ][4   ][1   ][6   ][-13 ][-1  ][-4  ]
[3   ][-11 ][9   ][5   ][3   ][0   ][3   ][3   ]
[2   ][-2  ][3   ][-1  ][-3  ][-6  ][-1  ][1   ]
[1   ][-4  ][3   ][0   ][-1  ][-1  ][-1  ][-1  ]
[-1  ][-1  ][-2  ][-1  ][1   ][3   ][-3  ][-1  ]
[-2  ][0   ][-1  ][-2  ][-1  ][3   ][2   ][-1  ]
[0   ][-2  ][0   ][0   ][-1  ][-1  ][-2  ][1   ]
[-2  ][0   ][0   ][1   ][-1  ][1   ][-3  ][-1  ]
[1   ][1   ][0   ][-1  ][-3  ][-2  ][-2  ][-2  ]
[-1  ][0   ][-1  ][1   ][-1  ][0   ][1   ][-1  ]
[0   ][-1  ][-2  ][-2  ][-2  ][-2  ][1   ][-3  ]
[-1  ][0   ][-2  ][-1  ][-5  ][-2  ][-5  ][-1  ]
[-3  ][-3  ][-1  ][-1  ][-2  ][2   ][-3  ][-3  ]
[0   ][-1  ][-2  ][0   ][-2  ][-2  ][2   ][-1  ]
[-2  ][-2  ][-2  ][-2  ][0   ][-5  ][0   ][0   ]
[-1  ][-1  ][-1  ][2   ][0   ][0   ][-2  ][-1  ]
[-1  ][0   ][-1  ][-2  ][-3  ][-1  ][2   ][-1  ]
[0   ][0   ][0   ][0   ][-2  ][0   ][0   ][0   ]
[0   ][-1  ][-3  ][0   ][-2  ][1   ][-1  ][0   ]
[0   ][0   ][-1  ][-1  ][0   ][-4  ][-1  ][0   ]
[0   ][-2  ][-2  ][-2  ][-1  ][-7  ][-2  ][-1  ]
[-1  ][2   ][-1  ][0   ][1   ][-2  ][0   ][0   ]
[-1  ][-2  ][-2  ][0   ][-1  ][-1  ][-1  ][2   ]
[-2  ][-1  ][-1  ][0   ][-1  ][-4  ][-2  ][-1  ]
[2   ][0   ][0   ][-1  ][0   ][3   ][-3  ][-1  ]
[-1  ][-2  ][-2  ][-1  ][-2  ][3   ][3   ][-2  ]
[0   ][1   ][-1  ][-1  ][-2  ][-4  ][0   ][-1  ]
[-1  ][1   ][-1  ][-1  ][-1  ][-2  ][-1  ][0   ]
[-2  ][0   ][-1  ][2   ][0   ][-3  ][0   ][-1  ]
[1   ][-1  ][0   ][-1  ][0   ][0   ][-1  ][0   ]
[0   ][-1  ][0   ][1   ][1   ][4   ][1   ][0   ]
[-1  ][-1  ][-1  ][0   ][0   ][-2  ][-1  ][1   ]
[0   ][-1  ][1   ][0   ][-1  ][-1  ][0   ][0   ]
[0   ][-1  ][-1  ][-2  ][0   ][-5  ][0   ][-2  ]
[-2  ][0   ][1   ][-2  ][-2  ][-1  ][0   ][0   ]
[-1  ][-1  ][-2  ][-1  ][0   ][1   ][-1  ][-1  ]
[-2  ][-1  ][-2  ][-1  ][0   ][-1  ][0   ][0   ]
[-1  ][0   ][-1  ][-1  ][0   ][-1  ][-2  ][-1  ]
[1   ][-1  ][1   ][0   ][-1  ][-2  ][-3  ][-1  ]
[-1  ][0   ][0   ][-3  ][-1  ][-3  ][-4  ][0   ]
[-2  ][-1  ][-1  ][-1  ][-1  ][-7  ][-1  ][1   ]
[0   ][0   ][-3  ][2   ][-2  ][0   ][-2  ][0   ]
[0   ][-1  ][-2  ][-3  ][-1  ][2   ][1   ][-2  ]
[0   ][0   ][-1  ][0   ][1   ][0   ][2   ][-2  ]
[0   ][-1  ][0   ][2   ][1   ][2   ][-2  ][2   ]
[0   ][0   ][1   ][-1  ][-1  ][-2  ][-2  ][-3  ]
[-2  ][-3  ][-1  ][0   ][0   ][2   ][-1  ][-2  ]
[0   ][2   ][3   ][0   ][1   ][5   ][0   ][0   ]
[0   ][0   ][1   ][-1  ][-3  ][-1  ][0   ][-1  ]
[66  ][109 ][13  ][4   ][2   ][-5  ][4   ][-1  ]
[14  ][87  ][7   ][-1  ][-1  ][7   ][-1  ][0   ]
[-35 ][-58 ][-22 ][-7  ][-5  ][-12 ][-3  ][-8  ]
[2   ][-97 ][18  ][4   ][2   ][-3  ][5   ][13  ]
[87  ][10  ][68  ][31  ][12  ][13  ][18  ][8   ]
[-28 ][-76 ][3   ][-3  ][-2  ][-33 ][-1  ][10  ]
[4   ][1   ][-8  ][-2  ][-3  ][-3  ][-8  ][4   ]
[3   ][8   ][-6  ][-1  ][2   ][-5  ][5   ][6   ]
[-2  ][-4  ][-15 ][-5  ][-12 ][4   ][-5  ][-2  ]
[-3  ][-5  ][-2  ][-3  ][-11 ][8   ][0   ][-1  ]
[2   ][1   ][-3  ][0   ][-4  ][-20 ][0   ][3   ]
[-4  ][0   ][0   ][-1  ][-10 ][-6  ][-2  ][-1  ]
[-1  ][-1  ][-4  ][-5  ][-1  ][-6  ][-20 ][-4  ]
[-2  ][-1  ][0   ][3   ][-1  ][-9  ][-9  ][-5  ]
[1   ][0   ][1   ][-3  ][-7  ][2   ][3   ][1   ]
[-2  ][-1  ][-3  ][-2  ][-1  ][12  ][-1  ][-3  ]
[-1  ][-1  ][0   ][-3  ][-5  ][-8  ][-5  ][-2  ]
[1   ][-2  ][-1  ][-2  ][0   ][-7  ][-1  ][9   ]
[-8  ][-21 ][-2  ][1   ][0   ][0   ][4   ][8   ]
[-3  ][-38 ][17  ][4   ][4   ][-1  ][-1  ][3   ]
[3   ][-70 ][0   ][1   ][1   ][3   ][-1  ][3   ]
[-4  ][-31 ][1   ][0   ][0   ][1   ][3   ][3   ]
[16  ][-10 ][18  ][7   ][0   ][2   ][3   ][4   ]
[-9  ][-2  ][-4  ][-3  ][-3  ][-2  ][0   ][-2  ]
[-3  ][-6  ][-4  ][-2  ][-1  ][0   ][-1  ][2   ]
[-2  ][-3  ][-3  ][-1  ][-1  ][-1  ][0   ][-1  ]
[2   ][0   ][-4  ][0   ][1   ][1   ][-1  ][-1  ]
[3   ][-1  ][0   ][0   ][1   ][0   ][1   ][-2  ]
[-2  ][-1  ][-2  ][-3  ][-1  ][4   ][-1  ][-4  ]
[-9  ][-1  ][-9  ][-3  ][-1  ][-2  ][-3  ][-4  ]
[0   ][2   ][0   ][-1  ][-4  ][-4  ][-1  ][-4  ]
[-33 ][-25 ][-56 ][-10 ][-5  ][-5  ][4   ][-19 ]
[16  ][84  ][5   ][0   ][-2  ][-9  ][-17 ][-20 ]
[-41 ][-60 ][-11 ][7   ][6   ][-5  ][21  ][26  ]
[40  ][36  ][22  ][3   ][-12 ][10  ][15  ][45  ]
[25  ][46  ][40  ][6   ][-6  ][-5  ][-10 ][3   ]
[3   ][2   ][9   ][6   ][6   ][2   ][1   ][0   ]
[7   ][10  ][8   ][3   ][16  ][-6  ][7   ][5   ]
[0   ][1   ][-4  ][-5  ][-14 ][-4  ][-14 ][-18 ]
[0   ][3   ][2   ][-3  ][0   ][2   ][-6  ][4   ]
[1   ][1   ][1   ][2   ][-4  ][3   ][12  ][2   ]
[0   ][1   ][2   ][2   ][-7  ][12  ][-2  ][6   ]
[-1  ][-3  ][-4  ][-4  ][-7  ][6   ][-4  ][-5  ]
[1   ][1   ][0   ][0   ][-10 ][-6  ][-2  ][0   ]
[2   ][0   ][-1  ][0   ][2   ][10  ][-1  ][-1  ]
[2   ][-1  ][-1  ][-3  ][0   ][-8  ][-5  ][-1  ]
[-3  ][2   ][-2  ][0   ][-1  ][5   ][0   ][4   ]
[-7  ][-2  ][1   ][-2  ][-6  ][0   ][0   ][-1  ]
[5   ][2   ][1   ][-1  ][-1  ][0   ][-1  ][1   ]
[-8  ][-19 ][-7  ][-3  ][-3  ][-2  ][0   ][-2  ]
[30  ][53  ][-5  ][-3  ][0   ][-2  ][-2  ][1   ]
[0   ][-19 ][-9  ][3   ][1   ][8   ][-2  ][4   ]
[-24 ][-85 ][-28 ][-5  ][-5  ][-5  ][-4  ][-4  ]
[-4  ][101 ][24  ][1   ][-1  ][-5  ][0   ][1   ]
[-18 ][-16 ][-10 ][-8  ][-3  ][0   ][-7  ][-6  ]
[-9  ][-25 ][-7  ][-3  ][1   ][-5  ][0   ][-4  ]
[7   ][8   ][2   ][0   ][4   ][-2  ][2   ][2   ]
[2   ][-8  ][-2  ][-1  ][-5  ][1   ][1   ][0   ]
[-2  ][-1  ][-2  ][-2  ][-1  ][1   ][1   ][0   ]
[-2  ][-4  ][-1  ][1   ][0   ][6   ][3   ][-2  ]
[-1  ][-1  ][0   ][1   ][0   ][-14 ][-3  ][-4  ]
[-1  ][-1  ][-2  ][1   ][-1  ][-6  ][-3  ][1   ]
[2   ][-2  ][-1  ][1   ][-2  ][-4  ][1   ][-1  ]
[-1  ][0   ][1   ][5   ][1   ][0   ][1   ][-1  ]
[-1  ][1   ][-1  ][-1  ][-2  ][-1  ][-4  ][-3  ]
[-1  ][-1  ][0   ][0   ][-2  ][-3  ][0   ][1   ]
[1   ][-1  ][-1  ][-1  ][1   ][1   ][2   ][-2  ]
[-3  ][0   ][7   ][-3  ][-2  ][1   ][-1  ][-3  ]
[-1  ][-1  ][0   ][1   ][1   ][-3  ][0   ][-2  ]
[0   ][-3  ][2   ][-2  ][-2  ][0   ][0   ][0   ]
[-1  ][-1  ][2   ][-1  ][-2  ][-2  ][-1  ][-4  ]
[0   ][0   ][1   ][0   ][1   ][0   ][2   ][0   ]
[1   ][0   ][-3  ][0   ][0   ][-1  ][-1  ][-2  ]
[-2  ][1   ][0   ][0   ][-2  ][-2  ][-3  ][-1  ]
[2   ][-1  ][-3  ][-1  ][-1  ][-2  ][0   ][-2  ]
[-4  ][-1  ][1   ][0   ][-1  ][-2  ][0   ][2   ]
[-1  ][-2  ][-3  ][-1  ][-1  ][-2  ][-3  ][-2  ]
[-2  ][-3  ][1   ][0   ][-1  ][-1  ][1   ][0   ]
[-3  ][-2  ][-1  ][-1  ][1   ][0   ][-1  ][0   ]
[-2  ][0   ][-1  ][-3  ][0   ][-2  ][-3  ][-1  ]
[-1  ][-2  ][0   ][2   ][-1  ][-2  ][-2  ][-3  ]
[-4  ][-12 ][-2  ][-3  ][-2  ][1   ][2   ][0   ]
[-3  ][-4  ][-2  ][-2  ][-1  ][0   ][-3  ][0   ]
[-2  ][-2  ][1   ][-1  ][-1  ][2   ][0   ][0   ]
[-3  ][-1  ][1   ][0   ][-1  ][-1  ][0   ][-2  ]
[0   ][1   ][1   ][1   ][-3  ][2   ][1   ][1   ]
[-1  ][-4  ][-1  ][-2  ][-2  ][-3  ][-1  ][-1  ]
[-2  ][-2  ][-3  ][-2  ][0   ][-1  ][-1  ][-3  ]
[-1  ][-1  ][0   ][0   ][-1  ][-1  ][1   ][-2  ]
[-3  ][-1  ][0   ][0   ][-4  ][-1  ][0   ][2   ]
[0   ][-2  ][-1  ][-2  ][-1  ][-1  ][-5  ][2   ]
[0   ][0   ][-2  ][0   ][0   ][-1  ][2   ][-1  ]