Attempting to find a Myo...
Connected to a Myo armband!


[0   ][0   ][0   ][0   ][0   ][0   ][0   ][0   ]
[0   ][0   ][0   ][0   ][0   ][0   ][0   ][0   ]
[0   ][0   ][0   ][0   ][0   ][0   ][0   ][0   ]
[-17 ][-29 ][-36 ][-15 ][-14 ][-7  ][-2  ][-7  ]
[-14 ][-68 ][-42 ][-16 ][-12 ][-11 ][-8  ][-13 ]
[4   ][6   ][28  ][21  ][75  ][15  ][4   ][2   ]
[8   ][32  ][16  ][14  ][2   ][-1  ][-14 ][-6  ]
[0   ][17  ][18  ][7   ][8   ][1   ][1   ][-2  ]
[2   ][-6  ][-14 ][-17 ][-8  ][0   ][3   ][-5  ]
[-15 ][-51 ][-40 ][-30 ][-25 ][-8  ][-3  ][-3  ]
[-23 ][1   ][7   ][10  ][10  ][1   ][1   ][-13 ]
[-12 ][-8  ][-15 ][-16 ][-11 ][-3  ][-2  ][0   ]
[7   ][-4  ][-8  ][-1  ][-3  ][-4  ][-5  ][-3  ]
[0   ][28  ][17  ][1   ][5   ][-1  ][3   ][-5  ]
[1   ][0   ][6   ][-5  ][-6  ][25  ][52  ][6   ]
[0   ][-19 ][6   ][1   ][3   ][-4  ][-7  ][1   ]
[-2  ][41  ][21  ][38  ][12  ][-3  ][9   ][6   ]
[7   ][9   ][30  ][7   ][1   ][-3  ][-19 ][-7  ]
[5   ][-34 ][-39 ][-16 ][-11 ][-13 ][-12 ][-6  ]
[-4  ][6   ][33  ][15  ][6   ][1   ][3   ][-5  ]
[3   ][-7  ][12  ][-13 ][-5  ][1   ][1   ][38  ]
[-9  ][0   ][18  ][9   ][3   ][5   ][14  ][13  ]
[-8  ][-16 ][-6  ][-4  ][-7  ][-3  ][-4  ][5   ]
[5   ][-15 ][-18 ][-14 ][-18 ][-1  ][10  ][13  ]
[-2  ][-7  ][4   ][-1  ][-1  ][2   ][1   ][-1  ]
[-4  ][-7  ][-11 ][-5  ][-2  ][-2  ][-4  ][2   ]
[-1  ][-10 ][19  ][7   ][-6  ][-2  ][16  ][3   ]
[-2  ][-7  ][-8  ][-21 ][-10 ][-8  ][-8  ][-11 ]
[-5  ][14  ][15  ][4   ][-6  ][-4  ][-3  ][0   ]
[-4  ][31  ][11  ][1   ][-9  ][-2  ][6   ][5   ]
[0   ][-1  ][0   ][6   ][-8  ][-2  ][3   ][0   ]
[-3  ][-21 ][5   ][0   ][-2  ][1   ][2   ][2   ]
[-1  ][-3  ][-1  ][7   ][18  ][-4  ][-2  ][-6  ]
[-11 ][-15 ][2   ][-4  ][4   ][-1  ][-7  ][-13 ]
[3   ][-2  ][-6  ][-21 ][-15 ][0   ][0   ][-1  ]
[-2  ][-11 ][23  ][6   ][-6  ][1   ][-5  ][-13 ]
[7   ][28  ][-22 ][-8  ][-9  ][-5  ][-3  ][0   ]
[4   ][4   ][-14 ][-11 ][-9  ][1   ][11  ][5   ]
[-24 ][7   ][17  ][11  ][14  ][3   ][-12 ][-7  ]
[-9  ][1   ][4   ][8   ][1   ][2   ][14  ][6   ]
[-21 ][9   ][22  ][11  ][-29 ][-9  ][1   ][1   ]
[22  ][27  ][3   ][-2  ][-2  ][-5  ][-8  ][5   ]
[14  ][0   ][11  ][12  ][24  ][-2  ][-14 ][-6  ]
[1   ][4   ][15  ][12  ][-1  ][5   ][9   ][10  ]
[-25 ][-9  ][3   ][4   ][-2  ][-1  ][9   ][-2  ]
[-2  ][0   ][2   ][11  ][12  ][2   ][1   ][3   ]
[-7  ][-16 ][4   ][6   ][1   ][-2  ][-2  ][-3  ]
[3   ][5   ][1   ][-8  ][-4  ][5   ][10  ][1   ]
[-11 ][-12 ][1   ][-13 ][-5  ][-10 ][-15 ][-11 ]
[-2  ][4   ][0   ][3   ][3   ][3   ][2   ][2   ]
[-4  ][4   ][-13 ][3   ][-2  ][2   ][-3  ][0   ]
[-10 ][0   ][10  ][6   ][1   ][11  ][17  ][7   ]
[-6  ][18  ][20  ][17  ][5   ][1   ][-3  ][-1  ]
[4   ][-23 ][-32 ][-24 ][-5  ][-4  ][0   ][-5  ]
[-2  ][18  ][35  ][21  ][2   ][-4  ][-1  ][1   ]
[0   ][10  ][-1  ][5   ][7   ][2   ][4   ][-3  ]
[-5  ][8   ][-3  ][-8  ][-7  ][-5  ][5   ][34  ]
[-1  ][2   ][3   ][-9  ][1   ][-1  ][4   ][-6  ]
[-4  ][-7  ][-12 ][-6  ][0   ][-2  ][-1  ][-7  ]
[0   ][-1  ][-5  ][-3  ][1   ][1   ][-3  ][0   ]
[-2  ][11  ][-1  ][-4  ][-4  ][0   ][0   ][-3  ]
[-5  ][1   ][1   ][6   ][18  ][4   ][-4  ][-2  ]
[4   ][3   ][-4  ][-10 ][-5  ][-2  ][1   ][-1  ]
[1   ][-11 ][-5  ][3   ][7   ][-2  ][-3  ][-6  ]
[1   ][-2  ][-7  ][3   ][-2  ][-1  ][-5  ][-8  ]
[6   ][11  ][0   ][8   ][16  ][5   ][-1  ][-2  ]
[-9  ][3   ][-8  ][-1  ][13  ][-3  ][-4  ][-2  ]
[1   ][-3  ][3   ][-3  ][-6  ][2   ][7   ][3   ]
[3   ][14  ][-13 ][-6  ][2   ][0   ][2   ][0   ]
[-5  ][-5  ][-5  ][-10 ][-22 ][-7  ][2   ][1   ]
[10  ][21  ][13  ][-3  ][-10 ][-3  ][-5  ][-2  ]
[7   ][-7  ][1   ][-10 ][5   ][-1  ][-6  ][-7  ]
[10  ][4   ][14  ][6   ][13  ][4   ][13  ][7   ]
[-24 ][-33 ][-21 ][4   ][4   ][-4  ][-12 ][-8  ]
[0   ][24  ][15  ][2   ][-7  ][-1  ][3   ][4   ]
[-4  ][2   ][-3  ][2   ][6   ][3   ][4   ][3   ]
[7   ][14  ][2   ][10  ][9   ][4   ][-1  ][3   ]
[-9  ][-15 ][-9  ][-10 ][-9  ][-18 ][-21 ][-11 ]
[2   ][-6  ][-12 ][-7  ][1   ][7   ][-4  ][-3  ]
[2   ][-15 ][-6  ][6   ][0   ][2   ][-8  ][-6  ]
[-4  ][-18 ][6   ][-6  ][0   ][4   ][6   ][3   ]
[7   ][-20 ][7   ][13  ][1   ][-2  ][-8  ][-1  ]
[5   ][-10 ][-11 ][-7  ][1   ][1   ][6   ][0   ]
[-2  ][-17 ][-10 ][-5  ][-5  ][-5  ][-4  ][-4  ]
[2   ][2   ][1   ][-3  ][0   ][2   ][-1  ][-4  ]
[1   ][-6  ][-2  ][2   ][0   ][0   ][-1  ][2   ]
[-2  ][-5  ][10  ][9   ][8   ][-2  ][-2  ][0   ]
[0   ][5   ][-2  ][1   ][-3  ][-2  ][0   ][1   ]
[-4  ][-8  ][-4  ][0   ][-3  ][2   ][4   ][3   ]
[-4  ][-8  ][-7  ][1   ][0   ][2   ][0   ][-1  ]
[1   ][0   ][5   ][7   ][-1  ][0   ][-2  ][0   ]
[-3  ][-2  ][-15 ][-6  ][-4  ][-3  ][-3  ][-3  ]
[2   ][2   ][1   ][2   ][-9  ][-5  ][-1  ][1   ]
[4   ][23  ][14  ][4   ][-2  ][-5  ][0   ][-3  ]
[-6  ][-47 ][-17 ][6   ][12  ][1   ][-3  ][-6  ]
[6   ][1   ][-2  ][-4  ][3   ][3   ][-5  ][-2  ]
[5   ][14  ][14  ][7   ][5   ][-3  ][3   ][-1  ]
[2   ][-7  ][1   ][-8  ][-8  ][-3  ][-5  ][-3  ]
[5   ][-12 ][-9  ][-6  ][-5  ][-3  ][-23 ][-14 ]
[4   ][-1  ][6   ][1   ][11  ][6   ][0   ][-3  ]
[3   ][7   ][2   ][1   ][11  ][5   ][0   ][-3  ]
[-4  ][13  ][12  ][12  ][-1  ][5   ][3   ][2   ]
[-1  ][20  ][31  ][24  ][6   ][1   ][5   ][9   ]
[2   ][-23 ][-8  ][-7  ][3   ][1   ][-3  ][0   ]
[-6  ][17  ][14  ][-7  ][-6  ][-2  ][3   ][9   ]
[-6  ][-6  ][0   ][3   ][17  ][3   ][1   ][-4  ]
[-7  ][-1  ][1   ][18  ][9   ][0   ][7   ][-1  ]
[0   ][6   ][-7  ][-11 ][-4  ][-1  ][-9  ][-2  ]
[2   ][-12 ][14  ][13  ][4   ][4   ][-4  ][-1  ]
[-3  ][-29 ][12  ][1   ][-2  ][-5  ][-2  ][-9  ]
[-2  ][10  ][-4  ][0   ][1   ][5   ][3   ][-1  ]
[0   ][-7  ][-23 ][-4  ][-5  ][1   ][-1  ][-1  ]
[-2  ][4   ][4   ][-2  ][-4  ][-2  ][2   ][-4  ]
[-3  ][-10 ][-7  ][-4  ][-7  ][-4  ][3   ][-1  ]
[-2  ][0   ][4   ][-4  ][-5  ][-4  ][2   ][-5  ]
[-1  ][-3  ][-12 ][-4  ][4   ][0   ][2   ][-4  ]
[-5  ][7   ][-1  ][3   ][-2  ][-4  ][-6  ][-2  ]
[-8  ][-10 ][6   ][-1  ][-9  ][-6  ][-1  ][-3  ]
[-2  ][-13 ][-21 ][-9  ][1   ][2   ][5   ][4   ]
[-2  ][7   ][8   ][-1  ][1   ][2   ][2   ][2   ]
[-1  ][6   ][0   ][-4  ][7   ][4   ][2   ][-1  ]
[1   ][-2  ][-8  ][-1  ][2   ][-7  ][-6  ][-4  ]
[-1  ][21  ][5   ][-4  ][-5  ][-3  ][-3  ][-2  ]
[-5  ][35  ][6   ][-2  ][-3  ][2   ][5   ][-1  ]
[-5  ][-5  ][0   ][4   ][5   ][1   ][1   ][-2  ]
[-5  ][-22 ][-11 ][-4  ][-3  ][0   ][-1  ][0   ]
[-3  ][14  ][4   ][-3  ][-5  ][0   ][2   ][3   ]
[-5  ][13  ][10  ][3   ][7   ][2   ][5   ][0   ]
[0   ][9   ][6   ][0   ][-2  ][2   ][0   ][2   ]
[-2  ][26  ][14  ][0   ][-4  ][-2  ][1   ][-2  ]
[1   ][-4  ][-3  ][-2  ][4   ][0   ][-2  ][-2  ]
[-3  ][-13 ][-7  ][2   ][-3  ][-3  ][-3  ][-2  ]
[-4  ][-19 ][-8  ][1   ][-2  ][-3  ][1   ][1   ]
[-1  ][15  ][5   ][-5  ][-3  ][3   ][1   ][-1  ]
[2   ][-12 ][-5  ][0   ][-4  ][-3  ][-1  ][-1  ]
[-5  ][8   ][5   ][2   ][0   ][-3  ][-3  ][-2  ]
[2   ][-5  ][-1  ][-6  ][-7  ][2   ][-2  ][-4  ]
[2   ][10  ][0   ][3   ][7   ][2   ][3   ][2   ]
[-5  ][10  ][0   ][-1  ][1   ][3   ][1   ][-4  ]
[0   ][2   ][7   ][4   ][2   ][1   ][4   ][4   ]
[-4  ][2   ][7   ][-1  ][0   ][2   ][0   ][-2  ]
[-1  ][-1  ][-3  ][-2  ][-1  ][-2  ][-3  ][-6  ]
[-2  ][4   ][-2  ][1   ][-3  ][-4  ][-2  ][0   ]
[-1  ][3   ][-8  ][-4  ][-5  ][-3  ][0   ][5   ]
[-2  ][-1  ][0   ][2   ][-4  ][-2  ][-2  ][-2  ]
[-4  ][-3  ][-6  ][-3  ][-3  ][-2  ][1   ][1   ]
[3   ][-2  ][0   ][6   ][2   ][4   ][-1  ][1   ]
[-6  ][14  ][2   ][-1  ][-1  ][2   ][2   ][3   ]
[2   ][-4  ][-2  ][-3  ][-5  ][-2  ][1   ][3   ]
[-1  ][0   ][5   ][4   ][3   ][1   ][2   ][-2  ]
[-2  ][-3  ][-2  ][1   ][0   ][-5  ][-1  ][-4  ]
[-3  ][-8  ][-3  ][-1  ][-3  ][-2  ][-4  ][-5  ]
[-3  ][-5  ][8   ][0   ][0   ][0   ][-1  ][-1  ]
[-5  ][-28 ][-10 ][0   ][-2  ][-1  ][-2  ][0   ]
[-1  ][7   ][-1  ][-2  ][-4  ][-2  ][0   ][-2  ]
[1   ][14  ][-1  ][-4  ][0   ][4   ][5   ][1   ]
[0   ][3   ][-9  ][2   ][5   ][-7  ][-13 ][-10 ]
[4   ][7   ][-1  ][3   ][-7  ][-3  ][-3  ][-4  ]
[2   ][11  ][-9  ][-8  ][-14 ][-1  ][2   ][0   ]
[-6  ][3   ][9   ][6   ][2   ][-3  ][0   ][-6  ]
[17  ][11  ][4   ][0   ][22  ][10  ][7   ][0   ]
[-6  ][-8  ][3   ][6   ][-6  ][0   ][3   ][6   ]
[-10 ][-11 ][14  ][-11 ][-8  ][2   ][-9  ][-5  ]
[0   ][9   ][-13 ][-10 ][-1  ][-1  ][-1  ][2   ]
[-5  ][-24 ][-1  ][3   ][1   ][-14 ][-5  ][1   ]
[-3  ][-21 ][-19 ][-1  ][1   ][-3  ][-10 ][-10 ]
[-3  ][-4  ][-4  ][-2  ][4   ][8   ][-5  ][-3  ]
[2   ][0   ][-2  ][2   ][10  ][-3  ][0   ][-1  ]
[2   ][6   ][6   ][8   ][0   ][8   ][21  ][9   ]
[-6  ][-25 ][0   ][5   ][-2  ][-5  ][-8  ][-4  ]
[0   ][7   ][2   ][9   ][5   ][-1  ][1   ][4   ]
[3   ][-12 ][-35 ][-20 ][-1  ][18  ][5   ][2   ]
[-7  ][-6  ][-8  ][-16 ][-5  ][-4  ][2   ][2   ]
[-1  ][9   ][10  ][15  ][-3  ][-7  ][5   ][-3  ]
[-1  ][19  ][14  ][1   ][-6  ][-2  ][-4  ][-1  ]
[2   ][6   ][-5  ][-7  ][-7  ][-4  ][-1  ][5   ]
[1   ][-7  ][-12 ][-11 ][-2  ][-4  ][-5  ][-6  ]
[-6  ][27  ][0   ][5   ][2   ][5   ][3   ][-4  ]
[0   ][35  ][10  ][2   ][0   ][3   ][7   ][8   ]
[2   ][-11 ][-5  ][2   ][10  ][1   ][-2  ][-1  ]
[0   ][5   ][-5  ][-4  ][-3  ][-3  ][0   ][-3  ]
[-4  ][-13 ][-13 ][-6  ][3   ][-3  ][-8  ][-3  ]
[3   ][17  ][7   ][2   ][-4  ][-2  ][1   ][-1  ]
[1   ][-6  ][-7  ][8   ][4   ][2   ][1   ][1   ]
[-3  ][6   ][20  ][-2  ][-10 ][-5  ][-6  ][-1  ]
[-1  ][1   ][-3  ][6   ][11  ][4   ][0   ][4   ]
[4   ][-18 ][-33 ][-18 ][4   ][-1  ][-7  ][-5  ]
[-9  ][-8  ][-1  ][-6  ][-11 ][-1  ][1   ][-4  ]
[-1  ][-11 ][-1  ][1   ][12  ][2   ][2   ][1   ]
[0   ][-22 ][-2  ][0   ][-2  ][0   ][1   ][0   ]
[1   ][2   ][-8  ][-10 ][-1  ][1   ][0   ][-1  ]
[9   ][12  ][6   ][8   ][6   ][7   ][14  ][7   ]
[-10 ][-4  ][-6  ][-3  ][7   ][2   ][3   ][-4  ]
[-16 ][-6  ][-17 ][-9  ][-3  ][-4  ][-23 ][-18 ]
[6   ][16  ][7   ][-6  ][-5  ][-2  ][-2  ][4   ]
[3   ][-17 ][-23 ][-4  ][12  ][1   ][4   ][2   ]
[11  ][-1  ][-3  ][-18 ][-14 ][-9  ][-23 ][-9  ]
[-4  ][21  ][10  ][4   ][2   ][-1  ][-1  ][-2  ]
[-5  ][-7  ][-15 ][-11 ][29  ][13  ][13  ][0   ]
[-7  ][0   ][-6  ][0   ][5   ][0   ][0   ][-1  ]
[-2  ][-4  ][-11 ][-9  ][-15 ][-8  ][-13 ][-9  ]
[-4  ][2   ][-30 ][-20 ][2   ][3   ][2   ][0   ]
[-9  ][16  ][31  ][9   ][4   ][1   ][3   ][-1  ]
[5   ][-17 ][-15 ][-15 ][-13 ][-5  ][-4  ][6   ]
[2   ][-20 ][-11 ][8   ][6   ][1   ][1   ][-1  ]
[-1  ][-5  ][-2  ][-1  ][-5  ][-1  ][2   ][-1  ]
[-4  ][-23 ][1   ][-2  ][-2  ][-7  ][-10 ][-5  ]
[0   ][0   ][-4  ][-3  ][-3  ][6   ][14  ][2   ]
[0   ][-10 ][-13 ][-11 ][-2  ][-3  ][-7  ][-2  ]
[-1  ][12  ][-2  ][-15 ][-3  ][1   ][4   ][3   ]
[-1  ][21  ][-1  ][8   ][8   ][1   ][-2  ][-4  ]
[0   ][10  ][2   ][-2  ][-1  ][-1  ][0   ][1   ]
[1   ][-8  ][11  ][2   ][-1  ][4   ][29  ][6   ]
[-1  ][-7  ][-19 ][-1  ][2   ][-5  ][-21 ][-3  ]
[-2  ][-9  ][-1  ][3   ][0   ][0   ][-3  ][-3  ]
[-2  ][-9  ][-1  ][-2  ][-1  ][7   ][20  ][9   ]
[6   ][7   ][8   ][-2  ][-6  ][-2  ][5   ][6   ]
[3   ][-14 ][-6  ][-6  ][-2  ][0   ][-4  ][-4  ]
[0   ][-6  ][-9  ][2   ][6   ][5   ][1   ][-2  ]
[0   ][16  ][20  ][8   ][0   ][-1  ][7   ][2   ]
[-1  ][4   ][-14 ][-9  ][-6  ][-4  ][4   ][-1  ]
[0   ][-24 ][-2  ][-2  ][3   ][2   ][4   ][3   ]
[2   ][17  ][10  ][0   ][1   ][-1  ][-1  ][2   ]
[1   ][-3  ][5   ][6   ][3   ][-4  ][1   ][1   ]
[-5  ][-6  ][-2  ][-5  ][-7  ][-3  ][12  ][0   ]
[-2  ][1   ][-8  ][1   ][3   ][1   ][-3  ][-2  ]
[-7  ][2   ][8   ][-6  ][-4  ][-2  ][-8  ][-7  ]
[-4  ][-10 ][-6  ][-8  ][-7  ][-1  ][-1  ][-2  ]
[1   ][3   ][3   ][-1  ][0   ][0   ][2   ][4   ]
[0   ][13  ][-3  ][1   ][5   ][1   ][-2  ][-3  ]
[-2  ][-14 ][-17 ][-11 ][-7  ][-3  ][3   ][2   ]
[3   ][5   ][-1  ][-3  ][1   ][-6  ][-4  ][0   ]
[0   ][8   ][6   ][4   ][-1  ][-2  ][-6  ][1   ]
[6   ][15  ][8   ][0   ][-4  ][-2  ][-1  ][2   ]
[-6  ][1   ][7   ][4   ][7   ][9   ][3   ][-2  ]
[-1  ][-9  ][10  ][6   ][-2  ][-2  ][1   ][1   ]
[-14 ][18  ][8   ][8   ][-4  ][-6  ][-5  ][-10 ]
[2   ][15  ][17  ][-2  ][-7  ][-1  ][8   ][2   ]
[-1  ][9   ][7   ][4   ][2   ][0   ][1   ][2   ]
[7   ][15  ][11  ][6   ][2   ][4   ][-1  ][3   ]
[7   ][29  ][19  ][2   ][-5  ][0   ][-2  ][0   ]
[-2  ][5   ][6   ][-7  ][-6  ][-4  ][-5  ][-2  ]
[-2  ][-12 ][-28 ][5   ][13  ][-3  ][-4  ][0   ]
[8   ][20  ][5   ][-2  ][-3  ][0   ][-2  ][0   ]
[10  ][-2  ][10  ][-2  ][-15 ][2   ][7   ][8   ]
[-1  ][-25 ][-6  ][-4  ][-1  ][-2  ][1   ][-2  ]
[-14 ][-28 ][-17 ][-9  ][-2  ][2   ][-9  ][-6  ]
[-2  ][17  ][7   ][3   ][-3  ][-5  ][5   ][3   ]
[-12 ][-15 ][-34 ][2   ][5   ][-4  ][-15 ][-14 ]
[6   ][14  ][-1  ][2   ][6   ][0   ][-6  ][-1  ]
[-4  ][-6  ][-11 ][8   ][8   ][1   ][0   ][1   ]
[1   ][10  ][28  ][13  ][3   ][-1  ][-4  ][-5  ]
[-4  ][-15 ][-29 ][-2  ][-3  ][3   ][13  ][-1  ]
[-3  ][-11 ][-20 ][-1  ][6   ][4   ][-13 ][-3  ]
[-6  ][1   ][22  ][9   ][0   ][-7  ][-12 ][-11 ]
[2   ][-6  ][6   ][1   ][1   ][-1  ][0   ][1   ]
[1   ][17  ][27  ][14  ][2   ][0   ][2   ][6   ]
[4   ][-1  ][4   ][3   ][14  ][2   ][1   ][0   ]
[-8  ][-4  ][4   ][-7  ][-8  ][5   ][7   ][8   ]
[2   ][2   ][2   ][-11 ][-1  ][0   ][2   ][-1  ]
[-3  ][0   ][18  ][9   ][3   ][5   ][4   ][1   ]
[-9  ][-8  ][-6  ][-1  ][-2  ][0   ][3   ][-3  ]
[2   ][-14 ][-12 ][-1  ][-4  ][-3  ][-3  ][-2  ]
[-1  ][2   ][-2  ][-1  ][2   ][-4  ][1   ][0   ]
[0   ][-8  ][-2  ][-2  ][-4  ][-1  ][-1  ][-1  ]
[1   ][6   ][3   ][-15 ][-27 ][-9  ][-6  ][2   ]
[5   ][-6  ][8   ][5   ][1   ][0   ][-1  ][1   ]
[-6  ][-16 ][-5  ][3   ][1   ][2   ][3   ][-3  ]
[2   ][15  ][22  ][11  ][-1  ][1   ][-1  ][-2  ]
[5   ][12  ][-1  ][-2  ][2   ][3   ][-4  ][-3  ]
[0   ][16  ][8   ][2   ][-16 ][-12 ][3   ][7   ]
[-17 ][-25 ][-19 ][-8  ][18  ][-1  ][-30 ][-24 ]
[18  ][18  ][28  ][20  ][6   ][0   ][-8  ][-5  ]
[10  ][19  ][33  ][11  ][4   ][0   ][10  ][9   ]
[-19 ][20  ][32  ][-7  ][-22 ][3   ][5   ][-2  ]
[-9  ][-12 ][-45 ][-7  ][12  ][1   ][0   ][-3  ]
[16  ][48  ][10  ][3   ][31  ][4   ][-5  ][-8  ]
[3   ][-10 ][21  ][8   ][1   ][-2  ][-17 ][2   ]
[-8  ][-20 ][-13 ][-11 ][-9  ][-12 ][-3  ][-18 ]
[0   ][4   ][-18 ][-2  ][4   ][-3  ][8   ][12  ]
[1   ][4   ][13  ][23  ][9   ][-5  ][-35 ][-9  ]
[8   ][3   ][16  ][9   ][-4  ][-8  ][5   ][14  ]
[-1  ][8   ][-9  ][-9  ][-4  ][-1  ][11  ][12  ]
[-3  ][-4  ][6   ][1   ][-3  ][-1  ][-10 ][-11 ]
[-6  ][-15 ][-14 ][-15 ][8   ][4   ][-8  ][-5  ]
[-2  ][16  ][19  ][6   ][3   ][2   ][4   ][-3  ]
[-1  ][20  ][10  ][1   ][3   ][2   ][0   ][2   ]
[-2  ][-14 ][-14 ][-8  ][-4  ][-4  ][-8  ][-6  ]
[2   ][0   ][6   ][3   ][1   ][0   ][0   ][-1  ]
[2   ][3   ][-5  ][-14 ][-1  ][1   ][-3  ][1   ]
[1   ][-11 ][13  ][8   ][2   ][-8  ][-6  ][-5  ]
[1   ][-9  ][-6  ][2   ][-5  ][1   ][-1  ][0   ]
[1   ][13  ][4   ][-1  ][1   ][3   ][1   ][-1  ]
[0   ][2   ][1   ][5   ][2   ][2   ][2   ][-2  ]
[-3  ][3   ][-9  ][-3  ][-1  ][4   ][0   ][4   ]
[-3  ][-20 ][-10 ][-3  ][0   ][-1  ][-2  ][-2  ]
[2   ][6   ][0   ][2   ][-7  ][-4  ][5   ][-1  ]
[3   ][-13 ][-9  ][-6  ][-3  ][-2  ][0   ][0   ]
[-1  ][-2  ][-4  ][1   ][3   ][1   ][-1  ][-4  ]
[-2  ][-6  ][13  ][0   ][-11 ][-3  ][-4  ][-1  ]
[-2  ][-2  ][0   ][-1  ][2   ][5   ][2   ][0   ]
[0   ][3   ][4   ][-3  ][-8  ][-4  ][-3  ][-2  ]
[4   ][0   ][4   ][0   ][-2  ][1   ][-1  ][-1  ]
[0   ][-6  ][-7  ][2   ][-1  ][-3  ][-1  ][0   ]
[-6  ][-17 ][-7  ][3   ][6   ][0   ][1   ][-1  ]
[-1  ][4   ][-5  ][-3  ][7   ][2   ][-1  ][-5  ]
[2   ][6   ][4   ][-6  ][-2  ][2   ][2   ][2   ]
[1   ][5   ][7   ][-1  ][-5  ][-2  ][-3  ][-1  ]
[3   ][-6  ][-2  ][-2  ][-1  ][-2  ][-3  ][-1  ]
[4   ][-12 ][-3  ][-5  ][-6  ][-2  ][-2  ][-3  ]
[-1  ][-13 ][1   ][2   ][-2  ][0   ][-2  ][1   ]
[3   ][3   ][-4  ][2   ][1   ][0   ][2   ][2   ]
[-4  ][0   ][-6  ][2   ][0   ][-2  ][0   ][0   ]
[0   ][1   ][4   ][3   ][1   ][-1  ][-2  ][-1  ]
[-3  ][-23 ][-4  ][-5  ][-5  ][-2  ][-3  ][0   ]
[-2  ][-1  ][-4  ][1   ][0   ][0   ][1   ][4   ]
[1   ][9   ][20  ][6   ][-2  ][-1  ][-3  ][-1  ]
[2   ][-5  ][-6  ][0   ][-2  ][-1  ][-1  ][-1  ]
[4   ][-7  ][-2  ][-3  ][-6  ][-1  ][1   ][-1  ]
[1   ][1   ][-6  ][2   ][8   ][-1  ][3   ][3   ]
[0   ][-4  ][3   ][1   ][-2  ][-5  ][-1  ][-2  ]
[1   ][9   ][4   ][6   ][8   ][1   ][-2  ][-1  ]
[-8  ][-11 ][-8  ][-2  ][-1  ][0   ][0   ][-2  ]
[-3  ][5   ][-2  ][1   ][1   ][-3  ][-2  ][2   ]
[1   ][-1  ][-3  ][-1  ][-2  ][-3  ][-2  ][-2  ]
[-4  ][9   ][8   ][5   ][11  ][1   ][-1  ][-3  ]
[-1  ][-4  ][3   ][13  ][2   ][0   ][2   ][1   ]
[1   ][1   ][-3  ][-7  ][-3  ][-3  ][2   ][0   ]
[2   ][3   ][-1  ][-6  ][-5  ][0   ][2   ][2   ]
[0   ][-7  ][-5  ][-2  ][-6  ][-2  ][-1  ][-2  ]
[-1  ][-4  ][-5  ][-12 ][-11 ][-8  ][-4  ][-3  ]
[-1  ][9   ][3   ][-1  ][-1  ][0   ][1   ][-2  ]
[1   ][3   ][5   ][7   ][0   ][4   ][3   ][1   ]
[3   ][3   ][-8  ][-5  ][6   ][-3  ][-3  ][-5  ]
[-3  ][2   ][-2  ][-4  ][-5  ][-2  ][-1  ][0   ]
[-7  ][-29 ][-11 ][-2  ][-4  ][-7  ][-2  ][-2  ]
[-6  ][-18 ][-3  ][-2  ][2   ][1   ][-2  ][-7  ]
[-1  ][-3  ][-1  ][-4  ][0   ][0   ][0   ][1   ]
[-3  ][2   ][5   ][-2  ][-4  ][-2  ][-1  ][-1  ]
[-5  ][-22 ][1   ][-2  ][5   ][0   ][-3  ][-4  ]
[-3  ][-6  ][-9  ][0   ][2   ][-1  ][-2  ][-2  ]
[5   ][-8  ][-3  ][-10 ][-3  ][-2  ][-3  ][-1  ]
[-7  ][7   ][1   ][6   ][7   ][4   ][-1  ][1   ]
[-2  ][-27 ][-2  ][-12 ][3   ][4   ][-3  ][-3  ]
[7   ][-4  ][-2  ][6   ][3   ][0   ][6   ][3   ]
[2   ][31  ][27  ][21  ][36  ][6   ][-1  ][-7  ]
[11  ][-33 ][-40 ][-20 ][-36 ][-9  ][-10 ][-11 ]
[-21 ][-1  ][5   ][7   ][-9  ][-5  ][7   ][-1  ]
[17  ][31  ][32  ][9   ][-17 ][-2  ][-7  ][7   ]
[2   ][5   ][45  ][21  ][4   ][-5  ][-10 ][-2  ]
[-7  ][-11 ][-30 ][-17 ][-4  ][15  ][-23 ][-6  ]
[2   ][-5  ][3   ][6   ][9   ][6   ][7   ][-1  ]
[-3  ][-2  ][-2  ][-7  ][1   ][-9  ][-13 ][-5  ]
[4   ][2   ][0   ][-9  ][-12 ][-5  ][1   ][0   ]
[-5  ][-5  ][11  ][10  ][3   ][-9  ][-5  ][-7  ]
[1   ][-2  ][33  ][1   ][0   ][5   ][4   ][1   ]
[1   ][16  ][-3  ][0   ][-2  ][-2  ][-7  ][-2  ]
[3   ][-9  ][-1  ][11  ][14  ][2   ][-7  ][1   ]
[4   ][13  ][-1  ][3   ][1   ][2   ][2   ][9   ]
[-2  ][-1  ][6   ][-5  ][-3  ][-3  ][-5  ][-4  ]
[2   ][-5  ][-20 ][4   ][7   ][6   ][8   ][2   ]
[1   ][-21 ][-24 ][-11 ][-5  ][2   ][-1  ][-3  ]
[-9  ][9   ][9   ][14  ][-3  ][0   ][-5  ][0   ]
[-2  ][0   ][1   ][-7  ][-4  ][-5  ][-2  ][-3  ]
[2   ][-1  ][3   ][-5  ][-4  ][-6  ][-1  ][-1  ]
[-4  ][-12 ][0   ][8   ][-3  ][2   ][2   ][-1  ]
[-8  ][-10 ][6   ][5   ][-3  ][-2  ][-1  ][-4  ]
[4   ][1   ][11  ][3   ][-1  ][1   ][0   ][1   ]
[-9  ][-4  ][-4  ][-1  ][-13 ][-2  ][-2  ][-1  ]
[1   ][1   ][11  ][1   ][3   ][0   ][-1  ][-4  ]
[-33 ][-8  ][-3  ][-3  ][3   ][0   ][-14 ][-12 ]
[18  ][-8  ][-73 ][-35 ][-11 ][-4  ][4   ][2   ]
[-1  ][51  ][16  ][-6  ][11  ][2   ][-5  ][-3  ]
[17  ][33  ][47  ][3   ][-9  ][10  ][24  ][14  ]
[13  ][36  ][11  ][-10 ][-15 ][1   ][3   ][2   ]
[-3  ][13  ][17  ][-15 ][-27 ][-9  ][-12 ][4   ]
[1   ][-1  ][-7  ][-15 ][-1  ][1   ][-1  ][-11 ]
[5   ][-7  ][-11 ][-8  ][-3  ][1   ][2   ][2   ]
[3   ][-40 ][-67 ][-32 ][3   ][0   ][3   ][0   ]
[15  ][32  ][25  ][2   ][-2  ][-10 ][3   ][1   ]
[2   ][11  ][4   ][3   ][0   ][-5  ][-17 ][-5  ]
[-1  ][-14 ][-10 ][-3  ][5   ][4   ][6   ][-3  ]
[-12 ][-23 ][11  ][4   ][-1  ][-1  ][7   ][-15 ]
[1   ][13  ][-2  ][0   ][0   ][-3  ][-13 ][-13 ]
[0   ][5   ][-3  ][-2  ][-3  ][-5  ][-6  ][-14 ]
[-1  ][24  ][19  ][2   ][0   ][6   ][4   ][-1  ]
[-1  ][-4  ][-4  ][-16 ][-10 ][-1  ][-2  ][-15 ]
[3   ][30  ][10  ][12  ][4   ][-3  ][0   ][4   ]
[1   ][-14 ][-23 ][0   ][-1  ][2   ][-4  ][-2  ]
[-1  ][-22 ][-4  ][-3  ][-3  ][-3  ][-6  ][-2  ]
[8   ][0   ][-3  ][-8  ][-2  ][-7  ][-17 ][-8  ]
[-1  ][-1  ][28  ][9   ][-1  ][0   ][-3  ][-1  ]
[1   ][-15 ][-3  ][9   ][6   ][0   ][-8  ][-2  ]
[3   ][0   ][-17 ][-7  ][0   ][2   ][5   ][4   ]
[-2  ][0   ][-5  ][-6  ][0   ][1   ][0   ][-3  ]
[-7  ][-4  ][-13 ][-11 ][-12 ][-7  ][-4  ][-9  ]
[1   ][14  ][4   ][-5  ][-3  ][3   ][3   ][4   ]
[6   ][17  ][18  ][17  ][16  ][-4  ][0   ][3   ]
[-2  ][33  ][10  ][0   ][-3  ][-2  ][-1  ][0   ]
[3   ][4   ][-5  ][-12 ][-15 ][-7  ][-2  ][-3  ]
[-5  ][-3  ][-5  ][-14 ][-13 ][-5  ][-1  ][2   ]
[20  ][25  ][3   ][-1  ][-2  ][-1  ][1   ][6   ]
[-3  ][-2  ][-14 ][-7  ][-9  ][0   ][-8  ][-5  ]
[1   ][-7  ][-21 ][-4  ][-2  ][-2  ][-9  ][-2  ]
[-4  ][-3  ][-5  ][11  ][-6  ][-2  ][2   ][5   ]
[-5  ][-2  ][-17 ][2   ][6   ][8   ][-2  ][-2  ]
[-25 ][-28 ][-13 ][-9  ][-10 ][-19 ][-36 ][-25 ]
[4   ][31  ][26  ][-12 ][2   ][3   ][9   ][1   ]
[6   ][6   ][32  ][8   ][-5  ][2   ][9   ][10  ]
[-20 ][45  ][-12 ][-9  ][-20 ][-6  ][-3  ][-4  ]
[-1  ][-19 ][21  ][-1  ][-7  ][-4  ][-11 ][-7  ]
[7   ][0   ][3   ][-2  ][4   ][-5  ][-13 ][-5  ]
[-11 ][8   ][29  ][-6  ][-7  ][-6  ][-14 ][-13 ]
[2   ][3   ][9   ][6   ][2   ][3   ][25  ][20  ]
[1   ][-40 ][-33 ][-2  ][3   ][2   ][-6  ][-2  ]
[-5  ][-5  ][12  ][-8  ][-9  ][3   ][35  ][-2  ]
[-2  ][-20 ][-13 ][14  ][9   ][6   ][-10 ][-2  ]
[0   ][-11 ][-2  ][-24 ][-10 ][-26 ][-23 ][-1  ]
[-2  ][-2  ][0   ][-3  ][-4  ][1   ][4   ][-1  ]
[1   ][5   ][1   ][0   ][-7  ][-7  ][-15 ][-8  ]
[2   ][-2  ][-38 ][-15 ][-4  ][0   ][1   ][1   ]
[1   ][8   ][8   ][7   ][1   ][0   ][-2  ][1   ]
[-5  ][-1  ][0   ][2   ][3   ][5   ][0   ][1   ]
[5   ][5   ][-5  ][-6  ][0   ][-2  ][-4  ][0   ]
[-8  ][5   ][2   ][3   ][4   ][-3  ][2   ][-4  ]
[-5  ][-2  ][3   ][4   ][1   ][-1  ][3   ][-5  ]
[0   ][-1  ][-5  ][-2  ][3   ][0   ][-2  ][-2  ]
[0   ][-4  ][-13 ][-11 ][-4  ][1   ][-6  ][3   ]
[-1  ][4   ][9   ][4   ][-2  ][-3  ][0   ][2   ]
[-2  ][14  ][7   ][11  ][3   ][0   ][1   ][3   ]
[2   ][-6  ][-2  ][-6  ][7   ][2   ][-3  ][5   ]
[-3  ][5   ][-2  ][-7  ][-6  ][0   ][1   ][1   ]
[-12 ][4   ][14  ][9   ][19  ][7   ][0   ][2   ]
[15  ][1   ][1   ][-3  ][-3  ][-2  ][16  ][24  ]
[-4  ][-9  ][2   ][4   ][-5  ][-9  ][-8  ][-8  ]
[3   ][21  ][-4  ][-6  ][-13 ][2   ][16  ][10  ]
[20  ][36  ][48  ][43  ][-1  ][10  ][0   ][11  ]
[-8  ][3   ][23  ][39  ][50  ][12  ][-8  ][-4  ]
[-1  ][5   ][12  ][11  ][-10 ][-4  ][-1  ][1   ]
[-12 ][19  ][12  ][-2  ][-27 ][-7  ][-3  ][-4  ]
[-58 ][-67 ][-9  ][5   ][14  ][-5  ][0   ][-20 ]
[-2  ][10  ][-31 ][-26 ][-38 ][-16 ][-30 ][-14 ]
[20  ][29  ][-44 ][-15 ][10  ][-15 ][2   ][49  ]
[-9  ][-8  ][5   ][-1  ][1   ][13  ][17  ][-11 ]
[-3  ][8   ][17  ][1   ][-2  ][-6  ][-4  ][-8  ]
[26  ][-1  ][-30 ][-5  ][-3  ][-3  ][24  ][38  ]
[-3  ][6   ][8   ][2   ][-1  ][-5  ][-17 ][-20 ]
[3   ][-1  ][8   ][-1  ][-5  ][-1  ][-7  ][3   ]
[5   ][29  ][26  ][19  ][6   ][2   ][3   ][4   ]
[-10 ][36  ][6   ][-4  ][-1  ][7   ][4   ][-1  ]
[1   ][3   ][11  ][4   ][-2  ][-2  ][1   ][0   ]
[5   ][40  ][26  ][2   ][5   ][5   ][21  ][-4  ]
[-2  ][-10 ][-17 ][-9  ][-6  ][-5  ][-6  ][-2  ]
[-3  ][-15 ][-3  ][2   ][-6  ][0   ][-7  ][3   ]
[-4  ][-29 ][-11 ][-10 ][-7  ][-8  ][-12 ][-5  ]
[3   ][4   ][-4  ][6   ][4   ][-4  ][-10 ][-2  ]
[-1  ][13  ][-11 ][-5  ][-7  ][-3  ][1   ][-1  ]
[4   ][5   ][-5  ][4   ][5   ][2   ][-6  ][2   ]
[-4  ][-7  ][-9  ][-8  ][-8  ][-11 ][-7  ][0   ]
[-1  ][-13 ][-3  ][-2  ][-8  ][-4  ][-11 ][-3  ]
[5   ][9   ][5   ][2   ][0   ][4   ][1   ][1   ]
[-2  ][2   ][13  ][5   ][-4  ][-2  ][2   ][3   ]
[1   ][5   ][6   ][0   ][3   ][2   ][5   ][1   ]
[-7  ][-7  ][-5  ][2   ][-1  ][-8  ][-1  ][-6  ]
[-3  ][-16 ][-7  ][-3  ][-7  ][-4  ][-5  ][-6  ]
[3   ][1   ][-13 ][-5  ][5   ][4   ][2   ][4   ]
[9   ][-3  ][-3  ][2   ][4   ][-1  ][-10 ][-3  ]
[-2  ][-7  ][-2  ][-3  ][0   ][0   ][-4  ][-3  ]
[-1  ][1   ][-8  ][-1  ][1   ][2   ][2   ][0   ]
[5   ][7   ][8   ][5   ][-2  ][2   ][12  ][1   ]
[-1  ][-14 ][-15 ][-9  ][2   ][-1  ][-4  ][-3  ]
[-1  ][9   ][17  ][3   ][0   ][-4  ][-3  ][-3  ]
[-5  ][-18 ][-9  ][2   ][0   ][3   ][3   ][-1  ]
[4   ][11  ][13  ][2   ][3   ][2   ][4   ][-2  ]
[-8  ][-17 ][-10 ][-1  ][-3  ][-2  ][-3  ][-1  ]
[-4  ][-8  ][2   ][1   ][3   ][0   ][2   ][-5  ]
[-2  ][-18 ][-10 ][1   ][3   ][2   ][-2  ][0   ]
[3   ][-5  ][-13 ][-10 ][-5  ][-3  ][3   ][-5  ]
[6   ][11  ][7   ][5   ][0   ][-1  ][-5  ][1   ]
[-7  ][13  ][1   ][1   ][0   ][-1  ][-1  ][-1  ]
[-4  ][-36 ][-23 ][-1  ][1   ][-5  ][1   ][-1  ]
[3   ][-4  ][6   ][-2  ][-1  ][1   ][-3  ][-3  ]
[-1  ][12  ][2   ][5   ][-2  ][-1  ][1   ][1   ]
[3   ][7   ][-9  ][-3  ][-3  ][-2  ][4   ][4   ]
[-1  ][5   ][-4  ][3   ][9   ][3   ][0   ][-1  ]
[3   ][-5  ][5   ][-2  ][1   ][1   ][3   ][9   ]
[3   ][-3  ][-10 ][-4  ][-5  ][-1  ][5   ][-1  ]
[3   ][6   ][-2  ][-2  ][3   ][2   ][1   ][-2  ]
[-5  ][9   ][19  ][15  ][4   ][1   ][-2  ][0   ]
[1   ][-5  ][-8  ][-3  ][-3  ][2   ][-2  ][-4  ]
[0   ][-26 ][-34 ][-10 ][3   ][4   ][1   ][1   ]
[4   ][8   ][1   ][-1  ][-2  ][-2  ][-3  ][1   ]
[-13 ][-12 ][-6  ][-6  ][-5  ][1   ][0   ][-2  ]
[2   ][6   ][5   ][-3  ][-3  ][-3  ][-3  ][-2  ]
[7   ][4   ][-1  ][-7  ][-5  ][-3  ][7   ][2   ]
[3   ][-7  ][-4  ][-3  ][-1  ][-2  ][-3  ][-3  ]
[-7  ][-6  ][5   ][9   ][1   ][1   ][1   ][0   ]
[-4  ][-8  ][-36 ][-8  ][1   ][-2  ][-12 ][-7  ]
[4   ][12  ][2   ][0   ][7   ][3   ][-5  ][-1  ]
[-2  ][1   ][-10 ][-12 ][20  ][6   ][2   ][0   ]
[5   ][6   ][6   ][-5  ][2   ][-3  ][1   ][4   ]
[-5  ][-14 ][-7  ][-5  ][-15 ][-8  ][-23 ][-15 ]
[-5  ][5   ][8   ][7   ][2   ][0   ][6   ][2   ]
[-8  ][39  ][42  ][24  ][-37 ][-4  ][13  ][15  ]
[8   ][-16 ][-38 ][-15 ][-24 ][-18 ][-7  ][10  ]
[-8  ][-26 ][-23 ][-14 ][-37 ][-8  ][6   ][7   ]
[-22 ][2   ][18  ][14  ][0   ][5   ][19  ][7   ]
[-16 ][-8  ][-8  ][8   ][-2  ][-9  ][-20 ][-11 ]
[-9  ][23  ][-3  ][3   ][8   ][10  ][-9  ][7   ]
[3   ][-12 ][7   ][0   ][-3  ][-6  ][-9  ][-3  ]
[4   ][-6  ][-36 ][0   ][5   ][0   ][-4  ][-19 ]
[0   ][-25 ][-22 ][-20 ][-10 ][2   ][-7  ][-25 ]
[3   ][-15 ][12  ][4   ][5   ][-6  ][-13 ][-4  ]
[-2  ][-5  ][-17 ][-17 ][-8  ][2   ][9   ][0   ]
[-5  ][4   ][13  ][-2  ][1   ][17  ][13  ][-3  ]
[-1  ][4   ][-1  ][7   ][9   ][-8  ][-12 ][2   ]
[-10 ][-29 ][-14 ][-12 ][-4  ][-2  ][-8  ][-1  ]
[-3  ][-19 ][-13 ][-6  ][-7  ][-4  ][1   ][8   ]
[1   ][7   ][-5  ][-6  ][-6  ][-4  ][-12 ][27  ]
[4   ][-10 ][-5  ][-2  ][5   ][6   ][9   ][-1  ]
[0   ][-3  ][-6  ][-5  ][-18 ][-9  ][5   ][-3  ]
[-1  ][1   ][4   ][14  ][-4  ][2   ][-1  ][1   ]
[-1  ][-6  ][-13 ][-11 ][-3  ][-8  ][-4  ][-4  ]
[-2  ][0   ][3   ][-8  ][1   ][3   ][1   ][-4  ]
[0   ][1   ][2   ][1   ][-2  ][-3  ][-2  ][-2  ]
[-7  ][-9  ][-5  ][-11 ][-2  ][-3  ][-4  ][1   ]
[2   ][8   ][6   ][-4  ][-2  ][0   ][8   ][2   ]
[-2  ][-3  ][-7  ][-8  ][-10 ][-2  ][1   ][-1  ]
[5   ][-11 ][-6  ][5   ][1   ][0   ][-9  ][-4  ]
[0   ][-8  ][-4  ][-4  ][-8  ][3   ][9   ][6   ]
[-6  ][15  ][21  ][7   ][-4  ][-1  ][-3  ][-6  ]
[1   ][-9  ][6   ][8   ][1   ][4   ][3   ][5   ]
[2   ][-9  ][11  ][42  ][11  ][4   ][3   ][4   ]
[5   ][9   ][0   ][-31 ][-16 ][2   ][24  ][13  ]
[2   ][19  ][16  ][19  ][1   ][-4  ][13  ][2   ]
[6   ][10  ][-10 ][-4  ][-30 ][2   ][15  ][8   ]
[6   ][12  ][-13 ][-10 ][3   ][3   ][10  ][-2  ]
[-22 ][51  ][-15 ][5   ][27  ][9   ][-5  ][-10 ]
[-12 ][-25 ][5   ][1   ][2   ][-2  ][-8  ][-6  ]
[-3  ][13  ][-2  ][-3  ][3   ][3   ][-2  ][0   ]
[-2  ][15  ][4   ][5   ][-4  ][-3  ][0   ][-1  ]
[-3  ][-7  ][-5  ][-2  ][-7  ][-3  ][2   ][-4  ]
[-1  ][-36 ][0   ][1   ][3   ][-1  ][1   ][-3  ]
[-1  ][27  ][0   ][16  ][3   ][-2  ][-2  ][-1  ]
[7   ][-1  ][-2  ][3   ][4   ][-6  ][-5  ][-3  ]
[3   ][8   ][5   ][9   ][6   ][10  ][8   ][3   ]
[-6  ][-5  ][7   ][-9  ][-4  ][-2  ][-3  ][-6  ]
[1   ][6   ][18  ][4   ][0   ][-3  ][-7  ][-3  ]
[-5  ][-5  ][-6  ][-15 ][-8  ][-4  ][-9  ][-7  ]
[10  ][-15 ][4   ][-5  ][-4  ][-2  ][-11 ][3   ]
[-7  ][-19 ][4   ][-11 ][-4  ][-1  ][9   ][0   ]
[-1  ][0   ][-8  ][-10 ][-11 ][-8  ][0   ][-2  ]
[7   ][7   ][7   ][-2  ][1   ][6   ][14  ][12  ]
[-3  ][6   ][-1  ][12  ][2   ][4   ][-3  ][-3  ]
[-1  ][-12 ][-9  ][-7  ][-8  ][-7  ][-4  ][2   ]
[-1  ][-8  ][-11 ][-4  ][7   ][2   ][-4  ][-1  ]
[3   ][-1  ][-14 ][-8  ][-3  ][-1  ][-2  ][1   ]
[-3  ][8   ][-1  ][-3  ][-4  ][0   ][0   ][-2  ]
[-19 ][-57 ][-27 ][-14 ][-12 ][-6  ][-7  ][-11 ]
[-19 ][-4  ][3   ][-7  ][2   ][1   ][5   ][-8  ]
[8   ][12  ][14  ][0   ][13  ][8   ][-4  ][-2  ]
[13  ][-13 ][-18 ][-9  ][4   ][6   ][12  ][13  ]
[-20 ][-12 ][-10 ][34  ][10  ][-3  ][-36 ][-22 ]
[20  ][20  ][5   ][-11 ][-20 ][-1  ][11  ][9   ]
[4   ][-13 ][-29 ][-12 ][-26 ][-9  ][-50 ][-20 ]
[-1  ][50  ][13  ][-8  ][-12 ][-2  ][6   ][4   ]
[60  ][42  ][2   ][-1  ][10  ][14  ][31  ][18  ]
[-18 ][-28 ][-35 ][-18 ][5   ][2   ][-5  ][-8  ]
[-13 ][-47 ][-55 ][-24 ][-20 ][-10 ][-19 ][-19 ]
[23  ][15  ][-5  ][-5  ][-10 ][2   ][6   ][-2  ]
[-10 ][-5  ][-21 ][-3  ][-12 ][-3  ][-1  ][-3  ]
[-7  ][-11 ][-4  ][0   ][-2  ][8   ][-16 ][-5  ]
[-3  ][-16 ][-4  ][3   ][3   ][-5  ][-4  ][-6  ]
[-8  ][-10 ][-3  ][-12 ][-7  ][-1  ][5   ][0   ]
[0   ][-14 ][-8  ][-12 ][-7  ][3   ][-1  ][-1  ]
[-1  ][11  ][12  ][4   ][-9  ][-5  ][-2  ][1   ]
[8   ][4   ][-6  ][-7  ][-3  ][6   ][-9  ][-6  ]
[-7  ][-16 ][-22 ][-15 ][-6  ][-2  ][1   ][-2  ]
[4   ][2   ][40  ][4   ][0   ][-6  ][-5  ][6   ]
[-5  ][22  ][-10 ][-1  ][-1  ][6   ][1   ][-3  ]
[-2  ][-1  ][-20 ][3   ][-3  ][-8  ][-6  ][-5  ]
[8   ][-22 ][12  ][-23 ][-3  ][0   ][-4  ][2   ]
[-2  ][6   ][-8  ][5   ][5   ][8   ][3   ][0   ]
[-2  ][-10 ][-13 ][5   ][1   ][3   ][-2  ][2   ]
[3   ][14  ][0   ][-5  ][-2  ][-4  ][-3  ][0   ]
[1   ][1   ][-7  ][0   ][-2  ][-2  ][-1  ][1   ]
[0   ][-9  ][-15 ][2   ][2   ][2   ][3   ][-1  ]
[1   ][-8  ][2   ][8   ][18  ][11  ][4   ][-2  ]
[-1  ][5   ][38  ][-10 ][-20 ][-7  ][-4  ][-3  ]
[-5  ][-4  ][-9  ][-1  ][-6  ][-2  ][-1  ][0   ]
[-2  ][-4  ][5   ][4   ][-2  ][-2  ][-3  ][0   ]
[-9  ][-23 ][0   ][12  ][17  ][3   ][1   ][-2  ]
[2   ][8   ][13  ][-2  ][-12 ][0   ][-1  ][-1  ]
[14  ][4   ][-10 ][9   ][5   ][2   ][8   ][5   ]
[13  ][-11 ][-3  ][4   ][8   ][7   ][12  ][13  ]
[-15 ][-27 ][-53 ][-19 ][-16 ][-20 ][-15 ][-12 ]
[-19 ][11  ][4   ][0   ][-24 ][-4  ][0   ][-2  ]
[-3  ][16  ][16  ][-5  ][-42 ][-5  ][15  ][7   ]
[-27 ][-13 ][2   ][-14 ][-4  ][-6  ][-20 ][-29 ]
[-8  ][-48 ][-35 ][14  ][69  ][21  ][-2  ][-4  ]
[18  ][38  ][11  ][-2  ][5   ][1   ][1   ][-4  ]
[11  ][21  ][53  ][25  ][6   ][4   ][-4  ][-5  ]
[-1  ][20  ][18  ][-4  ][-11 ][-5  ][-3  ][0   ]
[19  ][9   ][0   ][2   ][-9  ][0   ][11  ][9   ]
[12  ][-5  ][-9  ][-4  ][16  ][5   ][2   ][6   ]
[13  ][10  ][7   ][-3  ][-8  ][-10 ][-5  ][0   ]
[0   ][0   ][13  ][11  ][8   ][-3  ][-5  ][-4  ]
[-10 ][-13 ][-17 ][-1  ][-1  ][-10 ][-8  ][2   ]
[-5  ][18  ][9   ][7   ][2   ][-1  ][6   ][4   ]
[-1  ][1   ][-3  ][0   ][-6  ][-6  ][-2  ][0   ]
[-1  ][25  ][19  ][10  ][3   ][1   ][-8  ][0   ]
[-17 ][-82 ][-80 ][-65 ][-26 ][-12 ][5   ][16  ]
[-18 ][-28 ][-16 ][-19 ][-7  ][-15 ][1   ][-13 ]
[4   ][15  ][7   ][19  ][12  ][5   ][-3  ][0   ]
[-2  ][3   ][-3  ][3   ][7   ][1   ][5   ][-2  ]
[-2  ][-6  ][-1  ][2   ][3   ][1   ][2   ][-7  ]
[13  ][-7  ][-19 ][-17 ][-6  ][0   ][5   ][22  ]
[-6  ][-6  ][18  ][0   ][-5  ][-20 ][-12 ][5   ]
[-8  ][-15 ][-9  ][-4  ][-5  ][-4  ][-6  ][-14 ]
[-3  ][-4  ][-12 ][-8  ][-4  ][3   ][3   ][0   ]
[-3  ][-11 ][-10 ][-5  ][-3  ][1   ][0   ][-1  ]
[2   ][14  ][-3  ][-2  ][4   ][-3  ][-2  ][-1  ]
[-3  ][-8  ][2   ][-1  ][4   ][4   ][3   ][-1  ]
[-3  ][2   ][7   ][-6  ][-3  ][2   ][-5  ][-4  ]
[-2  ][-2  ][-7  ][-1  ][-1  ][-1  ][-3  ][-3  ]
[-2  ][-8  ][-12 ][0   ][-2  ][-3  ][-2  ][0   ]
[2   ][4   ][5   ][0   ][-6  ][0   ][1   ][0   ]
[0   ][30  ][16  ][-1  ][-2  ][-2  ][-2  ][-2  ]
[-1  ][-8  ][-4  ][2   ][8   ][2   ][2   ][1   ]
[-2  ][8   ][1   ][1   ][-2  ][1   ][-1  ][-3  ]
[0   ][-6  ][-9  ][0   ][1   ][-1  ][0   ][-2  ]
[-2  ][6   ][-4  ][0   ][5   ][6   ][2   ][1   ]
[-2  ][-2  ][-2  ][-5  ][-4  ][-1  ][-2  ][-4  ]
[-6  ][2   ][11  ][13  ][10  ][1   ][1   ][-1  ]
[-7  ][-5  ][-6  ][-2  ][-3  ][-2  ][-3  ][0   ]
[0   ][10  ][0   ][-2  ][-3  ][4   ][2   ][2   ]
[-1  ][5   ][-6  ][-8  ][-5  ][0   ][2   ][0   ]
[-6  ][-1  ][-4  ][-3  ][5   ][-7  ][-3  ][-1  ]
[3   ][2   ][-4  ][-9  ][-5  ][-4  ][-5  ][-3  ]
[4   ][23  ][1   ][-1  ][-1  ][-1  ][-2  ][-1  ]
[-3  ][-10 ][-5  ][2   ][0   ][3   ][3   ][-1  ]
[1   ][9   ][6   ][0   ][-3  ][0   ][0   ][-1  ]
[-1  ][-6  ][-7  ][-3  ][-1  ][-1  ][0   ][2   ]
[3   ][-6  ][2   ][1   ][0   ][2   ][1   ][2   ]
[0   ][5   ][12  ][0   ][-3  ][0   ][-1  ][-2  ]
[-3  ][-2  ][-4  ][-10 ][-11 ][-5  ][-3  ][-2  ]
[3   ][-3  ][-5  ][2   ][1   ][1   ][1   ][3   ]
[1   ][-15 ][-7  ][8   ][3   ][3   ][-1  ][3   ]
[10  ][27  ][22  ][11  ][-7  ][-2  ][4   ][0   ]
[-12 ][-7  ][-4  ][7   ][-1  ][-5  ][-5  ][-5  ]
[1   ][30  ][9   ][5   ][3   ][6   ][25  ][7   ]
[-9  ][20  ][34  ][-3  ][-25 ][-1  ][8   ][9   ]
[-14 ][4   ][4   ][24  ][10  ][9   ][-4  ][-1  ]
[-11 ][-49 ][-42 ][-50 ][23  ][6   ][1   ][-6  ]
[14  ][12  ][12  ][11  ][-1  ][3   ][28  ][20  ]
[-3  ][-24 ][25  ][1   ][-18 ][0   ][-3  ][-4  ]
[5   ][17  ][15  ][-9  ][-6  ][-5  ][-2  ][18  ]
[17  ][15  ][5   ][-8  ][-8  ][-10 ][-12 ][-4  ]
[4   ][31  ][2   ][-3  ][-7  ][0   ][3   ][2   ]
[-7  ][8   ][14  ][-3  ][-11 ][-38 ][14  ][3   ]
[3   ][-21 ][5   ][-12 ][-3  ][-7  ][-24 ][-10 ]
[-6  ][-14 ][-5  ][-8  ][-3  ][15  ][-37 ][-9  ]
[-3  ][-5  ][-1  ][-9  ][-10 ][-2  ][11  ][7   ]
[5   ][2   ][17  ][-1  ][6   ][25  ][30  ][1   ]
[-5  ][10  ][14  ][5   ][1   ][8   ][-4  ][-8  ]
[-4  ][14  ][-2  ][-5  ][-1  ][-1  ][-5  ][-3  ]
[-3  ][-35 ][-22 ][-18 ][-11 ][-3  ][-16 ][-8  ]
[1   ][-8  ][16  ][8   ][5   ][0   ][-13 ][-4  ]
[3   ][31  ][4   ][1   ][0   ][-1  ][7   ][10  ]
[-2  ][-2  ][-47 ][-17 ][4   ][6   ][5   ][7   ]
[3   ][4   ][19  ][8   ][-1  ][-2  ][5   ][1   ]
[0   ][17  ][24  ][19  ][5   ][-3  ][-5  ][-3  ]
[11  ][2   ][-5  ][-6  ][0   ][0   ][-1  ][1   ]
[-1  ][-9  ][-3  ][-14 ][-9  ][-8  ][-7  ][0   ]
[5   ][-8  ][-7  ][-11 ][-4  ][3   ][4   ][0   ]
[6   ][1   ][3   ][5   ][-1  ][-1  ][-17 ][-1  ]
[3   ][-19 ][0   ][-1  ][-16 ][-5  ][-12 ][-20 ]
[17  ][2   ][-8  ][-10 ][6   ][11  ][9   ][-7  ]
[-88 ][-98 ][-56 ][-16 ][34  ][1   ][2   ][-8  ]
[-17 ][10  ][8   ][0   ][-24 ][-6  ][9   ][-3  ]
[-5  ][-49 ][37  ][-28 ][-10 ][-10 ][-6  ][-6  ]
[24  ][-21 ][-26 ][-84 ][-98 ][-21 ][1   ][6   ]
[15  ][-6  ][18  ][6   ][-4  ][-4  ][-11 ][2   ]
[-25 ][-6  ][-16 ][13  ][-2  ][-4  ][-17 ][-17 ]
[-1  ][-22 ][-13 ][-32 ][-6  ][-24 ][-5  ][7   ]
[-26 ][-3  ][19  ][12  ][3   ][-7  ][-31 ][-50 ]
[0   ][-1  ][7   ][4   ][0   ][1   ][9   ][16  ]
[-11 ][13  ][6   ][11  ][4   ][-1  ][24  ][19  ]
[1   ][42  ][79  ][55  ][15  ][10  ][-2  ][-5  ]
[-12 ][-2  ][-16 ][-21 ][-3  ][1   ][19  ][-2  ]
[7   ][23  ][6   ][9   ][47  ][15  ][16  ][7   ]
[0   ][6   ][-12 ][-10 ][-11 ][-7  ][-3  ][7   ]
[3   ][1   ][-5  ][18  ][8   ][7   ][8   ][3   ]
[-9  ][-12 ][-5  ][1   ][5   ][2   ][-4  ][-5  ]
[-15 ][-1  ][-3  ][12  ][5   ][2   ][-2  ][-2  ]
[9   ][12  ][2   ][-13 ][3   ][1   ][-1  ][2   ]
[-22 ][-34 ][-10 ][-9  ][-14 ][-9  ][-7  ][-2  ]
[-5  ][-42 ][6   ][6   ][-14 ][-1  ][1   ][-1  ]
[-7  ][-30 ][-1  ][15  ][9   ][-5  ][-6  ][-7  ]
[-20 ][-16 ][4   ][17  ][10  ][0   ][3   ][10  ]
[5   ][4   ][21  ][-12 ][14  ][6   ][7   ][4   ]
[76  ][65  ][31  ][-31 ][11  ][11  ][19  ][8   ]
[0   ][69  ][103 ][22  ][-32 ][-2  ][2   ][1   ]
[7   ][-27 ][-7  ][37  ][33  ][17  ][6   ][11  ]
[-2  ][7   ][25  ][22  ][-20 ][-4  ][13  ][9   ]
[4   ][8   ][10  ][11  ][13  ][8   ][26  ][18  ]
[-42 ][-4  ][12  ][7   ][10  ][52  ][80  ][20  ]
[0   ][17  ][-11 ][-6  ][-4  ][-13 ][-22 ][-7  ]
[10  ][11  ][2   ][23  ][-1  ][-7  ][10  ][9   ]
[-22 ][-23 ][-28 ][2   ][5   ][0   ][10  ][-11 ]
[4   ][11  ][33  ][24  ][14  ][-4  ][-13 ][-13 ]
[-1  ][-13 ][-19 ][-5  ][0   ][-1  ][-2  ][-3  ]
[11  ][30  ][23  ][5   ][-2  ][0   ][-28 ][-15 ]
[0   ][24  ][41  ][4   ][-6  ][1   ][2   ][-4  ]
[-4  ][-8  ][-13 ][-7  ][1   ][1   ][-1  ][-2  ]
[-3  ][-34 ][-23 ][-6  ][-7  ][-4  ][22  ][18  ]
[2   ][3   ][11  ][6   ][10  ][6   ][2   ][1   ]
[2   ][1   ][9   ][9   ][-2  ][-1  ][-6  ][-1  ]
[-4  ][-26 ][-24 ][-7  ][1   ][-1  ][-1  ][-2  ]
[10  ][19  ][12  ][-3  ][-10 ][-4  ][-2  ][1   ]
[-7  ][10  ][5   ][7   ][-5  ][1   ][0   ][0   ]
[-3  ][2   ][-7  ][-12 ][-4  ][-6  ][-3  ][-2  ]
[-1  ][-18 ][-6  ][11  ][10  ][1   ][-3  ][-3  ]
[-10 ][6   ][3   ][6   ][4   ][0   ][-3  ][2   ]
[10  ][7   ][21  ][-8  ][-29 ][-12 ][-8  ][2   ]
[-2  ][55  ][1   ][-15 ][3   ][5   ][20  ][7   ]
[-8  ][-9  ][1   ][17  ][26  ][5   ][-4  ][-6  ]
[-9  ][38  ][-6  ][17  ][27  ][11  ][25  ][0   ]
[-47 ][-14 ][22  ][11  ][-38 ][-5  ][-2  ][15  ]
[-8  ][81  ][-24 ][11  ][55  ][18  ][5   ][-13 ]
[42  ][12  ][5   ][-15 ][-12 ][6   ][11  ][16  ]
[6   ][-13 ][-13 ][4   ][30  ][13  ][3   ][2   ]
[24  ][6   ][17  ][-4  ][-6  ][-3  ][7   ][1   ]
[-16 ][-12 ][-9  ][4   ][4   ][-3  ][-5  ][-4  ]
[-14 ][-24 ][-27 ][-15 ][-11 ][21  ][15  ][-35 ]